<?xml version="1.0" encoding="UTF-8" standalone="no"?>
<!-- Created with Inkscape (http://www.inkscape.org/) -->
<svg
   xmlns:svg="http://www.w3.org/2000/svg"
   xmlns="http://www.w3.org/2000/svg"
   xmlns:xlink="http://www.w3.org/1999/xlink"
   version="1.0"
   width="750"
   height="620"
   id="svg2">
  <defs
     id="defs5">
    <linearGradient
       id="linearGradient2541">
      <stop
         style="stop-color:#ffc5a0;stop-opacity:1"
         offset="0"
         id="stop2543" />
      <stop
         style="stop-color:#cfb079;stop-opacity:0.556701"
         offset="1"
         id="stop2545" />
    </linearGradient>
    <radialGradient
       cx="558.72455"
       cy="1071.2964"
       r="182.11835"
       fx="558.72455"
       fy="1071.2964"
       id="radialGradient2549"
       xlink:href="#linearGradient2541"
       gradientUnits="userSpaceOnUse"
       gradientTransform="matrix(0.267846,5.983624,-7.096298,0.317665,8006.918,-2570.738)" />
    <radialGradient
       cx="558.72455"
       cy="1071.2964"
       r="182.11835"
       fx="558.72455"
       fy="1071.2964"
       id="radialGradient3451"
       xlink:href="#linearGradient2541"
       gradientUnits="userSpaceOnUse"
       gradientTransform="matrix(0.267846,5.983624,-7.096298,0.317665,8006.918,-2570.738)" />
  </defs>
  <path
     d="M 621.29988,592.57253 C 615.24988,591.85423 607.14988,590.49673 603.29988,589.55573 C 595.98938,587.76893 582.64608,587.13523 508.00028,585.02943 C 474.89208,584.09543 471.35678,583.82993 467.79008,582.01033 C 465.63928,580.91313 462.71428,580.01533 461.29008,580.01533 C 458.50928,580.01533 452.79148,577.44413 451.52868,575.62583 C 451.10448,575.01503 451.02368,572.99253 451.34908,571.13133 C 451.87188,568.14133 451.72878,567.83573 450.12028,568.50713 C 442.86868,571.53403 427.31688,576.29533 418.65328,578.14083 C 403.52538,581.36343 376.86008,581.40183 361.07218,578.22363 C 346.27298,575.24453 330.32598,569.64003 315.54988,562.22503 C 315.13738,562.01803 314.79988,563.83273 314.79988,566.25773 C 314.79988,571.30433 312.81288,573.71813 306.29988,576.58333 C 302.73018,578.15373 298.05118,578.36393 262.79988,578.53753 C 223.58228,578.73063 210.66448,579.48543 195.29988,582.48173 C 169.75928,587.46253 139.82548,587.30113 126.48478,582.11063 C 124.93648,581.50823 120.66148,580.97733 116.98478,580.93093 C 113.30808,580.88453 107.59988,580.43483 104.29988,579.93153 C 100.99988,579.42823 97.624876,578.96643 96.799876,578.90523 C 84.568976,577.99863 69.931122,568.24333 57.829442,552.93353 C 55.613182,550.12973 53.799882,547.07863 53.799882,546.15343 C 53.799882,545.22813 52.516232,542.90603 50.947322,540.99313 C 47.709862,537.04603 41.765152,524.96843 39.391292,517.51533 C 37.934252,512.94073 36.744862,508.25663 30.630932,483.01533 C 25.348272,461.20593 23.206612,450.10653 20.790292,432.01533 C 20.165882,427.34033 19.174382,421.85453 18.586972,419.82473 C 17.254842,415.22143 18.045112,410.10043 21.008952,404.13013 C 23.196992,399.72263 23.510862,399.50173 27.997242,399.21273 C 34.431032,398.79813 37.268572,401.48433 36.494372,407.25643 C 36.198632,409.46133 36.327802,412.22153 36.781412,413.39033 C 37.528772,415.31593 39.533742,422.00453 44.232452,438.24703 C 45.144402,441.39943 47.440892,445.89943 49.335752,448.24703 C 51.230622,450.59463 53.338942,453.59693 54.020912,454.91893 C 54.702872,456.24083 56.394632,458.53223 57.780362,460.01083 C 64.115072,466.76993 69.728932,473.01113 74.691252,478.81153 C 77.653832,482.27443 81.477742,485.83383 83.188826,486.72143 C 88.002776,489.21833 99.728076,491.97923 105.59958,491.99823 C 113.55508,492.02393 115.92908,490.40933 124.61418,479.06633 C 127.79668,474.90983 131.80248,464.90453 133.64278,456.51533 C 134.88868,450.83593 135.17138,441.78043 135.14128,408.51533 C 135.10518,368.63083 134.64288,358.49273 131.19648,322.01534 C 128.73638,295.97669 128.63198,216.37997 131.03038,195.31976 C 132.67768,180.85497 136.94958,164.46565 139.82108,161.59415 C 140.35938,161.05581 140.79988,159.864 140.79988,158.9457 C 140.79988,157.02418 150.50668,137.69709 154.82748,131.01534 C 156.42808,128.54034 159.05238,124.04034 160.65938,121.01534 C 162.26638,117.99034 164.59568,114.61534 165.83558,113.51534 C 167.07548,112.41534 169.85228,109.26534 172.00628,106.51534 C 174.16018,103.76534 178.48238,99.39053 181.61118,96.79354 C 189.42518,90.30773 216.56338,72.228589 226.29988,67.022539 C 230.69988,64.669889 235.42488,61.974769 236.79988,61.033389 C 238.17488,60.092019 243.57488,57.391669 248.79988,55.032609 C 254.02488,52.673559 258.72738,50.35461 259.24988,49.87939 C 259.77238,49.40416 260.81328,49.01535 261.56288,49.01535 C 262.31258,49.01535 265.71008,47.69297 269.11288,46.07673 C 272.51578,44.46049 277.77488,42.40411 280.79988,41.50698 C 283.82488,40.60986 290.57488,38.38132 295.79988,36.55467 C 313.46848,30.37777 325.10168,27.98327 346.85848,26.04505 C 367.31828,24.22238 378.44328,24.68426 394.49738,28.02287 C 409.52478,31.14795 410.99918,31.66569 416.79988,35.8546 C 428.29798,44.15775 437.46378,59.356239 436.54218,68.590679 L 436.10498,72.97245 L 439.71258,69.743899 C 448.63978,61.754809 460.59748,58.487479 486.79988,56.877749 C 505.97418,55.699789 513.61948,56.783609 527.29988,62.619119 C 531.69988,64.495989 535.81298,66.027949 536.44018,66.023479 C 538.09378,66.011689 551.53758,72.78204 552.29548,74.00824 C 552.64808,74.57882 554.36838,75.67973 556.11818,76.4547 C 557.86808,77.22967 561.71058,80.14848 564.65718,82.94094 C 567.60368,85.7334 571.36548,89.15495 573.01668,90.54439 C 577.49398,94.31173 584.93628,106.17341 590.25278,118.01534 C 592.84548,123.79034 596.67868,132.11534 598.77088,136.51534 C 603.06478,145.54562 605.22038,151.02823 610.29278,165.82094 C 612.23638,171.48903 614.42348,177.11403 615.15288,178.32094 C 615.88238,179.52786 617.26528,183.21534 618.22598,186.51534 C 619.18678,189.81534 620.66628,194.54034 621.51368,197.01534 C 622.36118,199.49034 623.42208,203.99034 623.87118,207.01534 C 624.76628,213.04404 625.96178,218.11912 628.81808,228.01534 C 629.84988,231.59034 631.62988,241.26534 632.77358,249.51534 C 633.91728,257.76534 635.07578,265.13995 635.34798,265.90337 C 636.79818,269.96992 642.77258,299.50225 643.36148,305.51534 C 643.73858,309.36534 644.47128,313.32895 644.98968,314.32336 C 647.01688,318.21159 648.99948,355.04473 648.41798,378.01533 C 647.81228,401.94243 646.49948,413.92253 642.28098,434.01533 C 639.37928,447.83663 637.81268,459.28093 637.11458,471.75713 C 636.36238,485.19833 641.83978,502.34663 649.52398,510.60873 C 652.15568,513.43833 653.07928,513.74853 660.35048,514.24453 C 673.49938,515.14163 675.52848,514.46463 680.55208,507.50403 C 689.82498,494.65553 691.92738,491.13253 695.38938,482.64093 C 699.61268,472.28213 701.70218,468.86753 709.48918,459.59983 C 722.63448,443.95493 724.28588,442.95013 729.49408,447.42723 C 732.17188,449.72923 732.29488,450.21933 732.19078,458.17723 C 732.08288,466.42983 729.05708,483.32023 726.12898,492.01533 C 725.29548,494.49033 724.00628,499.44033 723.26408,503.01533 C 721.18278,513.04033 718.04228,525.98783 716.35118,531.51533 C 715.50988,534.26533 714.81438,537.64033 714.80578,539.01533 C 714.79708,540.39033 713.39898,545.34033 711.69898,550.01533 C 709.99888,554.69033 708.20268,559.85683 707.70738,561.49653 C 707.21208,563.13613 705.55058,566.28613 704.01518,568.49653 C 702.47968,570.70683 700.34058,574.26803 699.26158,576.41013 C 696.48308,581.92633 691.69358,586.76603 688.24618,587.54083 C 686.62568,587.90503 683.93088,588.81243 682.25778,589.55743 C 676.19768,592.25553 669.96008,593.04103 651.29988,593.45593 C 639.24638,593.72393 628.27818,593.40093 621.29988,592.57253 z M 665.10408,589.98913 C 671.04638,589.42563 676.67138,588.59623 677.60408,588.14603 C 678.53678,587.69593 680.30628,586.80733 681.53628,586.17143 C 682.76628,585.53563 684.56628,584.99943 685.53628,584.97993 C 688.70228,584.91633 691.70858,582.55073 694.78158,577.70523 C 696.44158,575.08753 697.79988,572.70023 697.79988,572.40003 C 697.79988,572.09993 699.37488,569.48143 701.29988,566.58133 C 703.22488,563.68113 704.81418,560.45493 704.83168,559.41183 C 704.84918,558.36873 705.52418,556.64183 706.33168,555.57423 C 707.13918,554.50663 707.79988,552.68413 707.79988,551.52423 C 707.79988,550.36433 708.17158,548.98783 708.62598,548.46533 C 709.51298,547.44533 710.96738,542.53983 712.76198,534.51533 C 713.37698,531.76533 714.32648,527.94033 714.87198,526.01533 C 715.41758,524.09033 716.10058,521.39033 716.38988,520.01533 C 716.67928,518.64033 717.37478,515.71533 717.93548,513.51533 C 718.49618,511.31533 719.32188,507.26533 719.77038,504.51533 C 720.21888,501.76533 721.27858,497.71533 722.12518,495.51533 C 723.80818,491.14163 725.64768,483.31583 726.82608,475.51533 C 727.24148,472.76533 727.92618,469.39033 728.34758,468.01533 C 728.76898,466.64033 729.30358,462.51333 729.53578,458.84433 C 729.90328,453.03413 729.68158,451.89703 727.81728,450.03283 C 724.80638,447.02193 723.04668,447.73603 717.99708,454.01783 C 715.56648,457.04143 711.91908,461.31533 709.89178,463.51533 C 705.21568,468.58973 701.59478,474.85783 698.33178,483.52673 C 695.39778,491.32153 692.33348,496.55543 684.87258,506.51533 C 681.98848,510.36533 679.27708,514.14013 678.84718,514.90373 C 678.17118,516.10423 670.20878,518.22573 667.29988,517.98033 C 666.74988,517.93393 663.14988,517.65873 659.29988,517.36873 C 649.85968,516.65763 646.99158,514.38073 641.44668,503.19523 C 635.13728,490.46773 634.36418,485.99723 635.14808,466.77493 C 635.62548,455.06923 636.52218,447.29453 638.34968,439.01533 C 644.17728,412.61483 646.35418,387.97773 645.41828,359.01533 C 644.70478,336.93576 643.54528,322.05296 641.79538,312.51534 C 641.18988,309.21534 640.32818,304.04034 639.88028,301.01534 C 639.43248,297.99034 637.91248,290.34034 636.50238,284.01534 C 631.34758,260.89283 630.78908,258.02086 629.37498,247.36557 C 628.58298,241.39794 627.18608,233.81534 626.27078,230.51534 C 624.27608,223.32326 623.36768,219.46994 621.79168,211.51534 C 621.13778,208.21534 619.92088,203.26534 619.08728,200.51534 C 618.25368,197.76534 617.21718,193.94034 616.78388,192.01534 C 615.76748,187.50011 613.94828,182.41389 611.77658,178.01534 C 610.82618,176.09034 609.05268,171.36534 607.83558,167.51534 C 606.61838,163.66534 605.04448,159.16534 604.33798,157.51534 C 603.63138,155.86534 602.24038,152.26534 601.24688,149.51534 C 599.60938,144.98286 593.83898,132.41223 584.03278,112.01534 C 582.04968,107.89034 578.73458,102.26534 576.66598,99.51534 C 572.34228,93.76751 559.23878,81.55591 553.91518,78.31317 C 548.42838,74.97105 534.79988,67.932859 534.79988,68.441469 C 534.79988,68.688119 531.98738,67.619079 528.54988,66.065829 C 515.01838,59.951589 505.18748,58.568329 484.79988,59.909969 C 470.34878,60.860949 466.06928,61.530139 455.98008,64.416559 C 447.16178,66.939369 438.79988,72.99919 438.79988,76.86687 C 438.79988,77.82854 438.30878,79.10645 437.70858,79.70669 C 436.92008,80.49513 437.61128,82.24318 440.19898,86.00504 C 443.61638,90.97306 446.10838,97.39757 447.57278,105.01534 C 449.23578,113.66634 447.46338,140.76728 444.85858,146.51534 C 443.22728,150.11517 442.61708,161.73702 444.03358,162.22577 C 444.73008,162.46605 454.07488,162.32997 464.79988,161.92336 C 475.52488,161.51675 487.67488,161.13242 491.79988,161.06929 C 496.15778,160.95181 498.76108,160.47891 502.54338,161.1205 C 503.28598,161.24648 504.46958,162.44091 505.69738,163.38409 C 509.09818,165.99641 512.93598,170.2506 516.95438,174.41985 C 518.87748,177.54729 523.58448,184.68652 526.97058,189.02536 C 527.33948,189.30587 527.60978,190.88021 528.31988,192.23897 C 530.19768,195.83243 530.76358,197.42379 532.39918,199.72575 C 534.26878,202.35709 535.83278,205.18538 535.87298,206.01214 C 535.91318,206.8389 536.80818,208.86534 537.86198,210.51534 C 538.91568,212.16534 540.04308,214.19034 540.36728,215.01534 C 540.69148,215.84034 541.59638,217.70977 542.37828,219.16963 C 543.16018,220.62949 543.79988,222.48689 543.79988,223.29719 C 543.79988,224.10748 544.46298,225.32077 545.27338,225.99338 C 546.08378,226.66599 547.03278,228.85859 547.38218,230.86582 C 548.62028,237.97787 552.05888,250.55708 553.57358,253.51534 C 554.41848,255.16534 555.11508,256.74034 555.12158,257.01534 C 555.12818,257.29034 555.94778,259.35628 556.94308,261.60632 C 557.93838,263.85636 559.24008,268.13136 559.83578,271.10632 C 560.43148,274.08128 561.30408,277.41534 561.77488,278.51534 C 563.10778,281.62942 567.02718,298.85355 567.91878,305.51534 C 569.12668,314.54006 569.08438,339.64825 567.81618,366.44313 C 566.28518,387.21673 566.68248,397.70993 563.79988,422.02473 C 565.62928,427.70973 558.83668,440.57033 558.79988,440.87473 C 558.79988,442.03213 557.03288,446.80353 554.87328,451.47803 C 552.71378,456.15243 550.64778,460.99803 550.28218,462.24613 C 549.24688,465.78083 540.67308,484.22643 538.76908,487.01533 C 537.83028,488.39033 536.73768,490.55993 536.34098,491.83673 C 534.26508,498.51823 520.73008,518.59123 512.37498,527.37933 C 509.30868,530.60453 506.79988,533.62743 506.79988,534.09693 C 506.79988,534.56643 500.61238,538.99433 493.04988,543.93683 C 485.48738,548.87923 478.84728,553.28133 478.29418,553.71923 C 477.74108,554.15703 475.26608,555.61483 472.79418,556.95863 C 468.29278,559.40583 455.94638,568.57303 454.56518,570.49373 C 453.15558,572.45383 453.82078,573.97483 456.75018,575.48963 C 458.37288,576.32873 460.87748,577.01533 462.31598,577.01533 C 463.75438,577.01533 465.91428,577.57783 467.11558,578.26533 C 470.21948,580.04163 479.50048,580.54673 570.79988,583.90863 C 588.67098,584.56673 599.57918,585.41733 604.29988,586.52083 C 621.02638,590.43113 645.63838,591.83503 665.10408,589.98913 z M 173.79988,582.01343 C 178.47488,581.39023 184.09988,580.73133 186.29988,580.54933 C 188.49988,580.36723 192.99988,579.68913 196.29988,579.04233 C 209.38838,576.47693 220.94498,575.82543 260.61818,575.41633 C 300.88968,575.00093 302.05518,574.93353 306.61818,572.75273 C 310.81398,570.74753 311.33188,570.13023 311.60788,566.80523 C 311.84488,563.95053 311.40628,562.68233 309.70578,561.30523 C 308.49028,560.32073 305.66498,557.78423 303.42738,555.66853 C 301.18988,553.55273 296.79108,550.52533 293.65238,548.94083 C 290.51368,547.35643 287.66128,545.60003 287.31368,545.03773 C 286.96618,544.47543 285.95868,544.01533 285.07478,544.01533 C 283.20318,544.01533 282.46518,543.41633 273.79988,534.86393 C 266.61288,527.77053 259.79988,519.94653 259.79988,518.78643 C 259.79988,518.37393 258.00048,515.44413 255.80118,512.27583 C 253.60188,509.10753 251.80188,506.17883 251.80118,505.76763 C 251.80048,505.35643 250.22488,502.82763 248.29988,500.14823 C 246.37488,497.46873 244.79988,494.82443 244.79988,494.27183 C 244.79988,493.71933 243.65678,491.29803 242.25958,488.89133 C 240.86238,486.48453 239.36008,483.84033 238.92108,483.01533 C 238.48208,482.19033 237.39778,480.16533 236.51148,478.51533 C 230.90418,468.07633 226.79988,459.37913 226.79988,457.93583 C 226.79988,457.01423 226.16908,455.73663 225.39798,455.09673 C 224.62698,454.45683 223.70928,452.79023 223.35858,451.39323 C 223.00798,449.99623 221.16848,445.49193 219.27088,441.38373 C 217.37328,437.27553 215.60168,432.92453 215.33408,431.71483 C 215.06648,430.50513 213.89928,426.83263 212.74028,423.55383 C 209.84288,415.35663 206.24138,401.01433 204.82068,392.01533 C 204.16948,387.89033 203.27908,383.82303 202.84198,382.97683 C 202.04438,381.43303 201.18138,376.96913 200.23958,369.51533 C 199.96158,367.31533 199.23498,362.24843 198.62488,358.25553 C 197.37688,350.08689 199.02628,327.74123 201.92728,313.51534 C 202.48808,310.76534 203.29918,305.59034 203.72958,302.01534 C 204.92248,292.10775 207.85218,278.86521 209.36038,276.5634 C 210.10198,275.43154 211.36828,271.80769 212.17428,268.5104 C 213.60408,262.66147 214.71688,259.14883 217.39998,252.01534 C 218.12398,250.09034 219.23468,246.49034 219.86828,244.01534 C 220.50178,241.54034 221.40038,238.61534 221.86518,237.51534 C 224.64748,230.93062 225.79988,227.56985 225.79988,226.04093 C 225.79988,225.08935 227.75638,219.6318 230.14778,213.91306 C 232.53908,208.19431 235.06718,201.11832 235.76588,198.18862 C 236.46458,195.25892 237.54548,192.68709 238.16808,192.47343 C 238.79058,192.25977 246.49988,191.84116 255.29988,191.54319 C 282.88928,190.60899 293.22158,189.91028 294.44348,188.89614 C 295.09388,188.35636 295.94188,185.61863 296.32778,182.81229 C 297.10018,177.19624 298.41148,173.81329 302.64458,166.51534 C 303.28268,165.41534 304.26118,163.39034 304.81928,162.01534 C 307.91778,154.38006 309.21598,152.03145 309.93848,152.75391 C 310.38118,153.19661 311.16178,156.47404 311.67308,160.03708 C 312.18438,163.60012 313.56138,169.26807 314.73318,172.63253 C 315.90488,175.99698 317.06368,179.78891 317.30828,181.05903 C 317.92658,184.26945 319.71648,185.19017 323.79988,184.39833 C 325.72488,184.02504 339.63978,183.57504 354.72178,183.39832 C 375.61158,183.15354 382.34678,182.7719 382.99628,181.79617 C 383.46518,181.09171 383.61218,178.04034 383.32288,175.01534 C 382.40958,165.464 382.52788,159.71175 383.77538,153.01534 C 385.11578,145.8198 391.50298,127.31684 392.95668,126.41842 C 393.46568,126.10382 395.20618,123.07193 396.82428,119.68088 C 398.44248,116.28983 401.91138,110.98868 404.53308,107.90055 C 407.15478,104.81242 409.97488,101.28295 410.79988,100.05728 C 411.62488,98.83161 412.97488,97.01831 413.79988,96.02772 C 414.62488,95.03711 417.70048,91.31051 420.63468,87.74637 C 423.56878,84.18223 427.30438,80.27913 428.93598,79.07283 C 430.57118,77.86389 431.77848,76.12462 431.62618,75.19745 C 431.47418,74.2723 431.75208,72.87281 432.24378,72.087479 C 435.41328,67.025139 429.42278,50.51055 422.06078,44.01535 C 413.44268,36.41188 408.89298,33.88578 400.79988,32.21085 C 397.77488,31.5848 391.69988,30.32879 387.29988,29.41971 C 378.63038,27.62851 359.35728,27.83852 337.29988,29.96455 C 327.33618,30.92492 308.33788,34.86658 303.29988,37.01868 C 298.55248,39.04669 289.32448,42.11343 285.16378,43.04586 C 282.68568,43.60119 277.35828,45.62151 273.32508,47.53545 C 269.29178,49.44939 265.67918,51.01535 265.29698,51.01535 C 263.77438,51.01535 238.74448,62.831889 236.79988,64.468769 C 235.97488,65.163219 232.37488,67.254929 228.79988,69.117029 C 220.40758,73.48829 210.76778,79.40946 203.26448,84.802 C 199.98398,87.15965 195.87428,90.08465 194.13198,91.302 C 183.45578,98.76108 176.99798,104.31279 175.08718,107.67451 C 173.88638,109.78697 171.25488,112.86534 169.23928,114.51534 C 167.13748,116.23589 164.53458,119.8567 163.13608,123.00525 C 161.79498,126.0247 159.85128,129.3997 158.81678,130.50525 C 157.78228,131.6108 154.59398,137.01534 151.73178,142.51534 C 148.86948,148.01534 146.20098,152.96534 145.80168,153.51534 C 145.40238,154.06534 144.75738,155.86534 144.36838,157.51534 C 143.97948,159.16534 142.84148,162.31534 141.83958,164.51534 C 136.43048,176.39329 135.33148,181.26841 133.83718,200.01534 C 133.24528,207.44034 132.28338,216.44034 131.69958,220.01534 C 129.75828,231.90415 131.94648,300.55216 135.31758,333.51534 C 136.47198,344.80355 137.11498,363.90153 137.50088,398.36723 C 138.08958,450.93473 137.75358,456.31173 133.08638,469.01533 C 129.31898,479.26963 120.61188,490.98803 115.57138,492.58783 C 114.59708,492.89713 113.79988,493.56983 113.79988,494.08273 C 113.79988,495.26283 101.06338,495.30673 97.199076,494.13993 C 95.604576,493.65843 91.824876,492.69103 88.799876,491.99013 C 83.281386,490.71153 77.574922,487.25023 74.828722,483.51583 C 74.019592,482.41553 70.011432,478.02713 65.921702,473.76363 C 61.831982,469.50023 57.791612,465.00023 56.943112,463.76363 C 56.094602,462.52713 54.590262,460.92733 53.600132,460.20863 C 52.609992,459.48993 51.799882,458.06013 51.799882,457.03123 C 51.799882,456.00233 50.748182,454.33323 49.462772,453.32213 C 46.169682,450.73173 42.241952,443.30383 40.929612,437.18463 C 40.316552,434.32603 39.207532,430.53103 38.465132,428.75123 C 37.722722,426.97153 36.535402,423.04033 35.826632,420.01533 C 35.117872,416.99033 34.104712,413.96843 33.575182,413.29993 C 33.045652,412.63143 32.903672,410.36053 33.259672,408.25333 C 34.043032,403.61673 31.392912,400.39433 27.590182,401.35973 C 21.195442,402.98293 19.902532,413.97683 23.808592,433.51533 C 24.358362,436.26533 25.232022,441.21533 25.750072,444.51533 C 27.208212,453.80383 28.462322,460.01883 30.088502,466.01533 C 30.908842,469.04033 32.335282,475.31213 33.258362,479.95273 C 34.181442,484.59323 35.768222,491.11823 36.784532,494.45273 C 37.800842,497.78713 39.154862,503.21533 39.793462,506.51533 C 41.538922,515.53503 49.384102,535.00523 52.284372,537.51533 C 54.072862,539.06323 57.274902,544.41493 56.986172,545.37363 C 56.656182,546.46933 61.552522,552.96653 64.460262,555.29143 C 65.682032,556.26823 66.953222,557.92313 67.285112,558.96883 C 67.617012,560.01453 69.331112,561.80593 71.094222,562.94983 C 72.857332,564.09363 75.712742,566.03883 77.439572,567.27243 C 84.982976,572.66123 87.567276,573.77253 95.299876,574.95283 C 98.049876,575.37253 101.08178,576.05433 102.03738,576.46783 C 102.99298,576.88133 105.14588,576.74173 106.82158,576.15763 C 110.72128,575.99723 113.30728,577.90043 118.73248,578.01533 C 122.45538,578.01533 126.80608,578.41683 128.40068,578.90743 C 129.99528,579.39813 133.99988,580.32613 137.29988,580.96963 C 140.59988,581.61323 144.42488,582.52923 145.79988,583.00523 C 148.80178,584.04453 162.09558,583.57363 173.79988,582.01343 z M 414.79988,576.34343 C 430.83198,573.76563 455.22558,564.97493 465.00538,558.25083 C 467.36738,556.62683 473.34988,552.74233 478.29988,549.61843 C 489.85878,542.32393 503.58948,530.39573 514.49298,518.17673 C 523.83518,507.70723 528.46258,501.05613 532.98768,491.59363 C 534.58638,488.25053 536.54018,484.39033 537.32948,483.01533 C 540.03328,478.30483 546.79988,463.61223 546.79988,462.45183 C 546.79988,461.81403 548.67108,457.29903 550.95828,452.41843 C 553.24538,447.53783 555.45728,442.18803 555.87368,440.53003 C 556.28998,438.87193 557.59638,434.15893 558.77658,430.05663 C 560.07268,425.55193 561.29628,417.23513 561.86638,409.05663 C 562.38548,401.60893 563.29638,388.31533 563.89068,379.51533 C 564.48498,370.71533 565.03448,350.01534 565.11168,333.51534 L 565.25218,303.51534 L 562.44038,293.51534 C 560.89388,288.01534 558.75638,279.75964 557.69028,275.16933 C 556.62418,270.57903 555.10438,265.57117 554.31298,264.04076 C 552.07098,259.70526 547.68038,247.78923 547.29928,245.00588 C 547.11038,243.62567 546.25218,240.47567 545.39238,238.00588 C 544.53248,235.53608 543.82238,232.33294 543.81438,230.88778 C 543.80638,229.44263 543.12488,227.70003 542.29988,227.01534 C 541.47488,226.33065 540.79988,225.24271 540.79988,224.59769 C 540.79988,223.95268 538.35838,218.72028 535.37438,212.97014 C 524.56298,192.13657 520.44908,185.21868 515.67418,179.84177 C 514.36828,178.3713 512.20978,175.6713 510.87748,173.84177 C 509.54518,172.01223 506.46238,169.02478 504.02678,167.20299 L 499.59838,163.89064 L 488.94908,164.4366 C 483.09198,164.73688 470.57398,165.25155 461.13118,165.58031 C 444.52498,166.15848 443.89258,166.10808 441.82608,164.04158 C 439.89508,162.11051 439.75298,161.21336 440.34828,154.71022 C 440.71048,150.75304 441.45078,145.71534 441.99328,143.51534 C 447.08388,122.87225 445.11098,99.23436 437.35658,87.96144 C 435.49838,85.26016 433.80398,82.52769 433.59118,81.88929 C 432.75018,79.36619 427.90408,83.84441 417.61968,96.64847 C 415.79378,98.92169 413.42928,101.98587 412.36528,103.45776 C 411.30128,104.92965 409.35318,107.34475 408.03628,108.82463 C 404.76818,112.49708 401.19198,118.11921 396.52088,126.92798 C 388.38818,142.26459 385.38218,155.17163 386.24108,171.06645 C 387.08388,186.66346 389.67158,185.38884 355.63208,186.14331 C 340.04938,186.4887 325.72488,187.06444 323.79988,187.42274 C 317.55458,188.58517 315.89348,186.79173 312.07628,174.76534 C 310.19968,168.85284 308.35728,164.02673 307.98208,164.04065 C 306.91998,164.08005 301.04938,176.99943 299.81438,182.01534 C 297.98918,189.42815 296.66018,192.0156 294.42328,192.51183 C 291.86228,193.07996 277.94908,193.83583 256.19308,194.58877 L 240.08618,195.14621 L 237.33668,203.33077 C 235.82448,207.83229 233.28508,214.59996 231.69358,218.37005 C 230.10208,222.14014 228.79988,226.04798 228.79988,227.05414 C 228.79988,228.06029 227.74518,231.50067 226.45608,234.69943 C 225.16698,237.89818 222.85818,244.56534 221.32538,249.51534 C 219.79258,254.46534 218.09908,259.64034 217.56218,261.01534 C 217.02518,262.39034 215.94608,265.94975 215.16398,268.92515 C 214.38188,271.90054 213.08808,275.72554 212.28868,277.42515 C 210.41948,281.39948 206.79988,299.05038 206.79988,304.19116 C 206.79988,306.36677 206.35218,308.98347 205.80488,310.00604 C 205.25758,311.0286 204.36148,315.83652 203.81338,320.6903 C 203.26538,325.54407 202.29918,334.12342 201.66638,339.75552 C 200.79118,347.5445 200.79738,351.73348 201.69228,357.25553 C 202.33938,361.24843 203.26428,367.75043 203.74758,371.70443 C 204.23098,375.65843 205.11898,380.38343 205.72108,382.20443 C 206.32318,384.02543 207.47738,389.11533 208.28598,393.51533 C 210.21688,404.02223 215.44108,423.42073 217.31648,427.04733 C 218.13238,428.62513 218.79988,430.62833 218.79988,431.49893 C 218.79988,432.36953 219.86348,435.20433 221.16338,437.79853 C 222.46328,440.39283 224.10378,444.31533 224.80878,446.51533 C 225.51388,448.71533 226.92528,451.58853 227.94528,452.90023 C 228.96538,454.21183 229.79988,455.94443 229.79988,456.75023 C 229.79988,459.18383 245.82418,490.67083 251.86278,500.10293 C 253.47818,502.62603 254.79988,505.00173 254.79988,505.38233 C 254.79988,506.11893 259.45458,512.15733 266.80728,520.95903 C 272.26898,527.49723 291.60138,544.24253 297.79988,547.80423 C 300.27488,549.22643 303.68558,551.57453 305.37918,553.02223 C 309.64758,556.67093 326.38878,565.08173 337.92658,569.37423 C 362.07058,578.35663 387.78158,580.68753 414.79988,576.34343 z M 373.79988,498.42283 C 369.12788,497.55983 350.81288,487.64073 346.83638,483.81973 C 344.65878,481.72733 342.44608,480.01533 341.91908,480.01533 C 341.39218,480.01533 338.49918,477.76533 335.49028,475.01533 C 332.48138,472.26533 329.52008,470.01533 328.90968,470.01533 C 328.29928,470.01533 327.79988,469.59563 327.79988,469.08273 C 327.79988,468.56983 326.98398,467.89113 325.98668,467.57463 C 324.39068,467.06803 317.79988,458.87343 317.79988,457.39563 C 317.79988,457.08693 315.88588,454.51253 313.54658,451.67483 C 311.20728,448.83713 308.47798,444.90493 307.48138,442.93663 C 306.48478,440.96833 302.78958,436.24333 299.26978,432.43663 C 295.74998,428.62993 292.85428,424.72783 292.83498,423.76533 C 292.81568,422.80283 292.39268,422.01533 291.89488,422.01533 C 291.39718,422.01533 289.74868,419.87783 288.23148,417.26533 C 286.71438,414.65283 285.14758,412.29033 284.74978,412.01533 C 284.35198,411.74033 282.79378,409.26533 281.28718,406.51533 C 279.78048,403.76533 277.76038,400.61533 276.79798,399.51533 C 275.83558,398.41533 274.22808,395.71533 273.22578,393.51533 C 272.22348,391.31533 270.63058,388.39033 269.68608,387.01533 C 267.09418,383.24233 266.37028,380.01533 268.11588,380.01533 C 268.91378,380.01533 269.83068,380.80283 270.15338,381.76533 C 270.47608,382.72783 272.45708,386.44033 274.55548,390.01533 C 276.65388,393.59033 279.25488,398.04053 280.33538,399.90473 C 281.41588,401.76883 285.11238,407.53263 288.54988,412.71303 C 291.98738,417.89343 294.79988,422.34963 294.79988,422.61563 C 294.79988,423.04503 305.56928,435.99053 309.34458,440.09923 C 310.14498,440.97033 310.79988,442.16743 310.79988,442.75943 C 310.79988,443.35143 312.50638,446.01363 314.59218,448.67553 C 316.67798,451.33743 319.38088,455.14823 320.59878,457.14403 C 325.07278,464.47583 351.26678,485.12643 365.28148,492.37063 L 373.29988,496.51533 L 388.29988,496.47853 C 398.91938,496.45243 405.19808,495.95553 409.79988,494.77683 C 413.37488,493.86113 420.22098,492.16933 425.01348,491.01743 C 442.68938,486.76863 464.50278,473.41453 468.33658,464.49503 C 469.05058,462.83383 470.57188,460.62663 471.71728,459.59003 C 472.86268,458.55343 473.79988,457.34493 473.79988,456.90433 C 473.79988,456.46383 475.11468,453.87343 476.72168,451.14783 C 478.32878,448.42233 479.40468,445.95343 479.11268,445.66143 C 478.82058,445.36943 479.53078,443.79763 480.69078,442.16853 C 481.85078,440.53943 482.79988,438.89043 482.79988,438.50393 C 482.79988,437.17553 488.86548,425.09283 489.83238,424.49523 C 490.36448,424.16633 490.79988,423.19163 490.79988,422.32903 C 490.79988,421.46653 492.18908,417.78053 493.88698,414.13803 C 495.58488,410.49553 497.60378,406.16533 498.37338,404.51533 C 499.14308,402.86533 500.25208,399.04033 500.83778,396.01533 C 502.15388,389.21913 503.43088,386.01533 504.82378,386.01533 C 505.92458,386.01533 505.36828,391.66093 503.88758,395.51533 C 503.46508,396.61533 502.08868,400.66533 500.82898,404.51533 C 499.56938,408.36533 497.29008,413.99033 495.76388,417.01533 C 494.23768,420.04033 491.54958,425.66533 489.79018,429.51533 C 476.17548,459.30763 475.42888,460.61733 466.29988,470.71953 C 459.76708,477.94883 453.45508,482.36623 440.79988,488.56563 C 435.24468,491.28693 432.78518,492.04033 422.79988,494.07913 C 419.77488,494.69683 415.04988,495.86873 412.29988,496.68343 C 407.37708,498.14183 379.17638,499.41593 373.79988,498.42283 z M 517.04988,390.65543 C 515.81238,390.04253 514.79988,388.95833 514.79988,388.24603 C 514.79988,387.53363 513.94888,386.62793 512.90878,386.23313 C 509.61368,384.98243 499.89788,377.56753 499.84788,376.26533 C 499.77048,374.24973 501.35878,374.79553 506.09798,378.41313 C 508.54618,380.28193 511.43328,382.28403 512.51378,382.86223 C 515.78658,384.61373 520.79988,389.37883 520.79988,390.73803 C 520.79988,392.21183 520.16428,392.19783 517.04988,390.65543 z M 257.97658,379.34623 C 258.29078,377.72403 262.50728,374.61173 266.04988,373.38703 C 267.01238,373.05433 267.79988,372.43913 267.79988,372.02003 C 267.79988,371.60093 269.14988,370.69883 270.79988,370.01533 C 272.44988,369.33193 273.79988,368.44953 273.79988,368.05453 C 273.79988,367.04483 278.50568,365.01533 280.84698,365.01533 C 281.92108,365.01533 282.79988,365.46533 282.79988,366.01533 C 282.79988,366.56533 281.93438,367.01533 280.87658,367.01533 C 279.81878,367.01533 277.68128,368.07923 276.12658,369.37963 C 274.57188,370.67993 270.74218,373.37473 267.61608,375.36803 C 264.48998,377.36123 261.65098,379.44733 261.30708,380.00373 C 260.26808,381.68483 257.62468,381.16303 257.97658,379.34623 z M 505.80538,372.76533 C 500.60488,367.26783 499.92368,366.01533 502.13418,366.01533 C 503.68518,366.01533 512.79988,375.35413 512.79988,376.94313 C 512.79988,379.15723 510.62058,377.85563 505.80538,372.76533 z M 260.38248,369.14903 C 260.08798,368.67253 260.62398,367.59783 261.57348,366.76093 C 263.83568,364.76683 272.84458,360.72663 273.52078,361.40283 C 274.78878,362.67093 272.69738,364.72943 269.02258,365.83043 C 266.83058,366.48723 264.47868,367.69743 263.79608,368.51993 C 262.39738,370.20523 261.17458,370.43063 260.38248,369.14903 z M 403.05898,254.04633 C 398.45488,251.95642 396.87818,249.3418 394.85948,240.44942 C 393.52088,234.553 394.45728,231.05618 398.51338,226.80413 C 403.57288,221.50033 414.23348,222.44958 418.23748,228.56042 C 419.09248,229.86544 420.31678,233.99256 420.95798,237.7318 C 421.99388,243.77265 421.91918,244.96169 420.28768,248.39974 C 418.99048,251.13344 417.25538,252.81236 414.37568,254.12023 C 409.28328,256.43315 408.30298,256.42674 403.05898,254.04633 z M 364.29988,254.3021 C 361.30848,253.58232 356.97228,249.09391 355.89328,245.60039 C 354.52328,241.16505 355.18388,232.05148 357.14858,228.28227 C 361.36748,220.18822 374.19038,219.85997 379.33908,227.71423 C 381.99538,231.76643 382.29698,242.10316 379.91588,247.48606 C 377.28318,253.43769 371.39268,256.00876 364.29988,254.3021 z M 443.50108,232.38324 C 443.11538,231.99756 442.79988,230.20856 442.79988,228.40769 C 442.79988,226.60682 442.34988,224.85526 441.79988,224.51534 C 441.24988,224.17542 440.79988,222.88714 440.79988,221.65249 C 440.79988,219.25793 435.95628,214.19378 431.79988,212.24264 C 430.42488,211.59718 427.49988,210.94448 425.29988,210.7922 C 422.05878,210.56787 421.29988,210.13586 421.29988,208.51534 C 421.29988,206.77327 422.06858,206.47585 427.26058,206.20915 C 436.23618,205.74809 441.07308,208.78653 445.38118,217.59204 C 448.32168,223.60218 448.53248,232.26371 445.75108,232.79092 C 444.89928,232.95238 443.88678,232.76892 443.50108,232.38324 z M 327.13298,225.44099 C 326.20638,223.02615 328.78278,216.39572 331.69368,213.70426 C 333.12708,212.37889 336.56438,210.0885 339.33218,208.61451 C 343.93028,206.1657 345.18108,205.95958 353.83218,206.22493 C 362.53638,206.49192 363.29988,206.67662 363.29988,208.51534 C 363.29988,210.32551 362.54058,210.54173 355.29988,210.79332 C 349.18658,211.00575 346.12068,211.65643 342.29988,213.55236 C 336.39568,216.48207 333.79988,218.36621 333.79988,219.72194 C 333.79988,220.26431 333.09198,222.1272 332.22668,223.8617 C 330.53768,227.24732 328.11448,227.99864 327.13298,225.44099 z "
     style="fill:black"
     id="path2513" />
</svg>
