<?xml version="1.0" encoding="UTF-8" standalone="no"?>
<!-- Created with Inkscape (http://www.inkscape.org/) -->
<svg
   xmlns:dc="http://purl.org/dc/elements/1.1/"
   xmlns:cc="http://web.resource.org/cc/"
   xmlns:rdf="http://www.w3.org/1999/02/22-rdf-syntax-ns#"
   xmlns:svg="http://www.w3.org/2000/svg"
   xmlns="http://www.w3.org/2000/svg"
   xmlns:xlink="http://www.w3.org/1999/xlink"
   xmlns:sodipodi="http://sodipodi.sourceforge.net/DTD/sodipodi-0.dtd"
   xmlns:inkscape="http://www.inkscape.org/namespaces/inkscape"
   width="618.57141"
   height="744.28571"
   id="svg2"
   sodipodi:version="0.32"
   inkscape:version="0.44"
   version="1.0"
   sodipodi:docbase="C:\Documents and Settings\ryan\Desktop"
   sodipodi:docname="face.svg">
  <defs
     id="defs4">
    <linearGradient
       inkscape:collect="always"
       id="linearGradient7416">
      <stop
         style="stop-color:#daab9b;stop-opacity:1;"
         offset="0"
         id="stop7418" />
      <stop
         style="stop-color:#daab9b;stop-opacity:0;"
         offset="1"
         id="stop7420" />
    </linearGradient>
    <radialGradient
       inkscape:collect="always"
       xlink:href="#linearGradient7416"
       id="radialGradient7422"
       cx="119.28571"
       cy="400.21933"
       fx="119.28571"
       fy="400.21933"
       r="52.142857"
       gradientUnits="userSpaceOnUse" />
    <radialGradient
       inkscape:collect="always"
       xlink:href="#linearGradient7416"
       id="radialGradient7426"
       gradientUnits="userSpaceOnUse"
       cx="119.28571"
       cy="400.21933"
       fx="119.28571"
       fy="400.21933"
       r="52.142857" />
  </defs>
  <sodipodi:namedview
     id="base"
     pagecolor="#ffffff"
     bordercolor="#666666"
     borderopacity="1.0"
     gridtolerance="10000"
     guidetolerance="10"
     objecttolerance="10"
     inkscape:pageopacity="0.0"
     inkscape:pageshadow="2"
     inkscape:zoom="0.7"
     inkscape:cx="84.883912"
     inkscape:cy="464.6388"
     inkscape:document-units="px"
     inkscape:current-layer="layer1"
     inkscape:window-width="1280"
     inkscape:window-height="968"
     inkscape:window-x="-4"
     inkscape:window-y="-4" />
  <metadata
     id="metadata7">
    <rdf:RDF>
      <cc:Work
         rdf:about="">
        <dc:format>image/svg+xml</dc:format>
        <dc:type
           rdf:resource="http://purl.org/dc/dcmitype/StillImage" />
      </cc:Work>
    </rdf:RDF>
  </metadata>
  <g
     inkscape:label="Layer 1"
     inkscape:groupmode="layer"
     id="layer1"
     transform="translate(58.57143,3.352104)">
    <g
       id="g7428"
       transform="translate(-172.8571,-110)">
      <path
         id="path3761"
         d="M 461.59375,126.1875 C 460.93924,126.20262 460.16931,126.29874 459.21875,126.4375 C 450.6276,127.6916 447.90037,128.23695 445.9375,129.0625 C 444.8375,129.52515 443.26251,130.18481 442.4375,130.53125 C 438.91307,132.01127 435.97196,134.13365 431.96875,138.0625 L 427.6875,142.25 L 421.59375,139.15625 C 414.74139,135.69719 412.57908,135.42189 408.5,137.53125 C 403.33079,140.20435 400.43751,144.68917 400.4375,150 C 400.4375,152.62573 400.01709,156.09292 399.53125,157.6875 C 399.04542,159.28208 398.08544,162.51249 397.375,164.875 L 396.09375,169.15625 L 390.5,163.78125 C 375.98465,149.79575 362.521,140.06249 357.6875,140.0625 C 354.64843,140.0625 350.54375,142.2186 347.625,145.34375 C 344.59384,148.58926 340.42559,161.05646 340.40625,166.9375 C 340.39783,169.49731 339.97067,172.23749 339.4375,173.0625 C 338.67274,174.24587 338.44958,174.02191 338.4375,172 C 338.4155,168.3166 333.65162,164.06249 329.53125,164.0625 C 325.87139,164.0625 322.64973,166.27825 310.1875,177.375 C 302.44909,184.26552 302.43751,184.28601 302.4375,189.34375 C 302.4375,192.58094 303.01002,195.05904 304.03125,196.1875 C 306.04967,198.41783 305.23995,199.73799 301.34375,200.59375 C 295.40136,201.89892 288.43751,209.95057 288.4375,215.5 C 288.4375,218.89194 293.82274,224.80136 297.9375,225.9375 C 301.65914,226.9651 308.99444,231.72463 314.625,236.71875 C 316.66272,238.52614 320.03772,240.94045 322.125,242.09375 C 324.21228,243.24704 328.16253,245.72947 330.90625,247.625 C 337.47954,252.16625 341.24,252.19552 346.125,247.71875 C 350.14431,244.03533 351.10176,240.41039 352.09375,224.9375 C 352.87637,212.7304 357.26056,209.98794 365.53125,216.5625 C 367.94615,218.48217 370.52504,220.05717 371.25,220.0625 C 372.95942,220.07509 369.9641,224.29415 362.65625,232.1875 C 357.89584,237.32931 357.04935,238.84641 356.65625,242.9375 C 356.22777,247.39677 356.4269,247.87498 359.84375,250.875 C 361.84737,252.6342 364.15543,254.06249 364.96875,254.0625 C 365.78207,254.0625 367.23246,254.48293 368.1875,254.96875 C 369.14254,255.45458 371.28751,256.38415 372.9375,257.0625 C 374.5875,257.74084 376.7012,258.70166 377.65625,259.1875 C 378.61129,259.67333 380.28126,260.06249 381.34375,260.0625 C 383.93713,260.0625 386.43751,261.10158 386.4375,262.15625 C 386.4375,262.62827 385.11561,264.50367 383.5,266.34375 C 381.27872,268.87365 380.48632,270.88667 380.25,274.5625 C 379.96592,278.98119 379.66453,279.50331 376.9375,280.34375 C 365.2942,283.93203 339.45328,295.29373 335.4375,298.59375 C 334.6125,299.27171 331.91333,300.91427 329.4375,302.21875 C 326.96167,303.52325 323.31984,305.79999 321.34375,307.3125 C 319.36767,308.825 317.39423,310.06249 316.96875,310.0625 C 316.54328,310.0625 314.56011,311.49749 312.5625,313.21875 C 310.56489,314.94003 306.71836,318.20254 304,320.46875 C 297.30231,326.05245 284.14241,338.2856 283.125,339.875 C 282.67146,340.58354 280.86214,342.60854 279.125,344.375 C 273.96316,349.62394 262.03705,365.22711 254.4375,376.65625 C 245.98737,389.3646 233.57952,414.30575 228.40625,429.0625 C 227.73141,430.9875 226.59203,433.91249 225.875,435.5625 C 224.0634,439.73124 219.84154,455.25504 218.375,463.0625 C 216.70648,471.94518 215.97953,473.06249 212.0625,473.0625 C 206.42489,473.0625 198.27508,476.08736 193.78125,479.84375 C 189.87487,483.10908 188.57666,485.13466 185.25,493.0625 C 184.67303,494.4375 183.79833,496.35746 183.3125,497.3125 C 182.82667,498.26754 182.4375,504.04376 182.4375,510.15625 C 182.4375,521.01025 182.52386,521.45983 186.34375,529.5 C 191.56103,540.48145 197.89161,546.00751 207.15625,547.6875 C 208.66176,547.9605 210.15399,548.65886 210.5,549.21875 C 210.84602,549.77862 211.45707,554.81216 211.84375,560.40625 C 213.06565,578.08348 220.95553,615.28359 225.875,626.5625 C 226.59467,628.2125 228.43676,633.16249 229.96875,637.5625 C 231.50074,641.9625 234.93517,649.92813 237.59375,655.25 C 240.25233,660.57189 242.4375,665.2205 242.4375,665.5625 C 242.4375,665.90453 244.0125,668.64699 245.9375,671.65625 C 247.8625,674.66551 249.4375,677.43712 249.4375,677.84375 C 249.4375,678.99571 263.00713,699.09392 267.4375,704.5 C 272.98224,711.26585 274.09572,712.57037 277.9375,716.9375 C 289.32193,729.87867 311.24629,749.13514 322.21875,755.8125 C 323.80381,756.7771 327.10504,758.89158 329.53125,760.5 C 337.0025,765.45289 353.48693,773.48777 366.4375,778.5 C 372.23746,780.74474 375.70406,781.81872 388.4375,785.1875 C 395.05338,786.93782 401.52516,788.02929 408.71875,788.65625 C 412.6825,789.00173 416.16251,789.50905 416.4375,789.78125 C 417.10721,790.44408 458.60298,789.40377 464.9375,788.5625 C 476.89744,786.97411 506.78707,778.18657 514.28125,774.0625 C 515.19559,773.55934 518.63748,771.92329 521.9375,770.4375 C 536.11174,764.05577 560.17462,747.73914 573.09375,735.75 C 581.86524,727.60992 600.39139,708.09183 600.40625,706.96875 C 600.41078,706.62635 602.57498,703.59384 605.1875,700.25 C 618.31357,683.44927 634.42478,653.46389 641.3125,633.0625 C 643.07333,627.84697 644.90051,622.8903 645.34375,622.0625 C 646.93683,619.08716 652.34645,596.34959 653.90625,586.0625 C 654.78188,580.2875 655.87747,574.21249 656.375,572.5625 C 656.87255,570.9125 657.60014,566.60624 657.96875,562.96875 L 658.625,556.34375 L 663.96875,555.15625 C 671.78701,553.4066 682.42392,545.27461 682.4375,541.03125 C 682.44023,540.17875 682.99998,538.90527 683.6875,538.21875 C 686.46792,535.4424 688.7147,523.66347 689.125,509.78125 C 689.57505,494.55457 688.84674,491.97619 682.75,487.46875 C 676.08993,482.54483 673.2493,481.67374 663.6875,481.625 C 655.33101,481.58241 654.43979,481.38126 654.4375,479.6875 C 654.42471,470.20814 643.24324,431.50335 635.96875,415.75 C 625.80665,393.74341 623.77592,389.99794 613.84375,374.8125 C 601.11236,355.34724 583.81787,335.65375 565.9375,320.25 C 558.65136,313.97306 536.27725,298.90635 532.0625,297.4375 C 530.68911,296.95887 533.16018,295.39156 541.46875,291.4375 C 547.65708,288.49245 553.37427,286.06249 554.1875,286.0625 C 555.54704,286.0625 558.64179,284.32156 568,278.3125 C 569.92721,277.075 572.40613,276.06249 573.5,276.0625 C 576.68951,276.0625 584.95412,271.45944 587.8125,268.0625 C 592.15321,262.90385 591.42996,259.64541 584.5,252.90625 C 581.24178,249.73773 577.3043,246.83858 575.75,246.46875 C 574.19572,246.09891 572.26248,245.23456 571.4375,244.53125 C 570.6125,243.82794 567.24881,242.30376 563.96875,241.15625 C 557.38251,238.85208 553.51541,236.06249 556.90625,236.0625 C 557.95651,236.0625 560.08242,234.85291 561.625,233.375 C 565.53743,229.62665 565.49711,224.48702 561.53125,220.6875 C 558.83222,218.10167 558.15843,217.93654 551.53125,218.25 C 544.97726,218.56001 544.43541,218.40707 544.4375,216.5625 C 544.44109,213.37307 547.08361,201.60871 548.3125,199.3125 C 550.43339,195.34957 549.60885,192.04634 545.53125,187.96875 C 542.18404,184.62155 541.05752,184.06249 537.21875,184.0625 C 532.58445,184.0625 521.49766,187.24571 517.78125,189.625 C 516.60139,190.38035 513.10997,191.85541 510.03125,192.9375 C 506.95254,194.01958 503.24414,195.84929 501.78125,197 C 500.31836,198.15071 498.95484,198.92361 498.75,198.71875 C 498.54514,198.51389 499.29243,196.22344 500.40625,193.625 C 501.52007,191.02655 502.43751,188.31854 502.4375,187.59375 C 502.4375,185.89495 506.69203,176.64083 508.46875,174.5 C 509.21961,173.59528 510.23079,170.32406 510.6875,167.21875 C 511.1442,164.11345 511.74954,159.86133 512.0625,157.78125 C 512.78832,152.95662 511.10015,148.85455 506.78125,145.0625 C 501.65229,140.55922 495.66751,140.84111 485.8125,146.0625 C 481.66014,148.2625 477.05949,150.08167 475.59375,150.09375 C 474.12801,150.10583 471.06825,150.94432 468.8125,151.96875 C 462.78619,154.70555 453.62535,155.49969 450.0625,153.59375 C 448.48713,152.75101 446.49713,152.06249 445.625,152.0625 C 443.58592,152.0625 444.85486,150.8507 449.71875,148.15625 C 451.79798,147.00442 454.57386,146.06249 455.90625,146.0625 C 459.21857,146.0625 463.39564,144.17824 466.6875,141.1875 C 470.57616,137.65455 470.47271,132.46104 466.46875,128.625 C 464.51602,126.75417 463.55727,126.14215 461.59375,126.1875 z M 338.1875,178.09375 C 338.3451,178.07107 338.4375,178.13211 338.4375,178.3125 C 338.4375,179.03406 337.11899,181.07117 335.5,182.84375 C 332.87512,185.71762 327.38634,187.57233 328.9375,185.0625 C 329.27742,184.5125 330.13943,184.06249 330.875,184.0625 C 331.61057,184.0625 333.60552,182.47539 335.3125,180.53125 C 336.59273,179.07315 337.71469,178.1618 338.1875,178.09375 z M 392.21875,191.71875 C 393.8704,191.68503 394.92172,192.60667 397.84375,195.65625 C 401.90034,199.88994 402.31417,200.06249 407.90625,200.0625 C 412.40964,200.0625 414.79727,199.47924 418.28125,197.4375 C 420.76343,195.98284 424.2487,194.44032 426.0625,194.03125 L 429.375,193.3125 L 428.75,199.21875 L 428.125,205.125 L 432.8125,209.59375 C 435.37733,212.05129 438.34715,214.06249 439.4375,214.0625 C 441.81271,214.0625 441.82607,214.0976 439.9375,217.71875 C 437.99542,221.44253 438.03732,226.39419 440.03125,230.25 L 441.625,233.34375 L 436.03125,238.96875 C 430.69259,244.3637 430.43751,244.87949 430.4375,249.8125 C 430.4375,254.74389 430.73394,255.32149 436.9375,262.40625 C 440.5125,266.48906 443.43751,270.31563 443.4375,270.9375 C 443.4375,272.39834 417.83762,272.51889 416.9375,271.0625 C 416.59758,270.5125 413.34653,270.06249 409.71875,270.0625 C 403.23997,270.0625 403.13968,270.04248 404.875,268.125 C 406.31795,266.53055 406.59057,264.81307 406.28125,258.6875 C 405.94553,252.03927 405.56885,250.83755 403,248.15625 C 399.96485,244.98824 396.81168,243.65034 389.59375,242.53125 C 387.21129,242.16187 384.14839,241.30303 382.78125,240.59375 L 380.28125,239.28125 L 386.375,232.8125 C 391.99554,226.80412 392.43751,225.98799 392.4375,221.6875 C 392.4375,218.49908 391.66224,215.82066 390,213.1875 C 387.11287,208.614 379.71308,202.06249 377.4375,202.0625 C 375.79303,202.0625 373.43751,200.23429 373.4375,198.96875 C 373.4375,198.13311 385.58269,193.13486 390.28125,192.03125 C 391.05157,191.85031 391.6682,191.72999 392.21875,191.71875 z M 450.0625,196.71875 C 450.91482,196.626 452.72176,196.8913 454.375,197.34375 C 456.26443,197.86084 459.43765,198.00728 461.4375,197.6875 C 465.20817,197.08454 469.68117,198.77399 474.625,202.65625 C 475.97163,203.71372 478.67836,205.4369 480.65625,206.5 L 484.25,208.4375 L 478.5625,212.15625 C 475.42934,214.19214 471.20263,217.70365 469.15625,219.96875 C 464.31424,225.32827 464.22671,228.77729 468.8125,233.78125 C 472.52537,237.83269 475.96351,238.68092 493.09375,239.71875 L 501.28125,240.21875 L 502.84375,244.15625 C 504.46694,248.21301 504.8773,253.83923 503.8125,257.8125 C 503.34667,259.55077 502.46934,260.06249 500,260.0625 C 496.2531,260.0625 491.76155,264.17715 490.5625,268.6875 C 490.02876,270.69522 489.06994,271.69623 487.40625,271.9375 C 486.08653,272.12888 483.89243,273.14137 482.5625,274.1875 C 480.14087,276.09236 476.53585,276.38545 470.9375,275.1875 C 468.70156,274.70905 467.35097,273.42259 465.59375,270.0625 C 464.3017,267.59187 461.60762,263.61078 459.59375,261.21875 C 453.36603,253.82165 451.53888,250.69785 452.65625,249.3125 C 453.21076,248.625 454.23682,248.06249 454.9375,248.0625 C 455.63818,248.0625 457.60552,246.47539 459.3125,244.53125 C 462.84201,240.51136 463.3655,236.23625 460.96875,230.5 C 459.50918,227.00675 459.52606,226.92895 462.96875,223.90625 C 467.83253,219.6358 467.78003,215.01694 462.84375,209.25 C 460.87589,206.951 458.80187,205.06249 458.21875,205.0625 C 456.49867,205.0625 448.47352,197.2162 449.75,196.78125 C 449.83024,196.75391 449.94074,196.732 450.0625,196.71875 z M 509.78125,278.0625 C 511.46452,278.0625 512.36641,278.99463 513.375,281.8125 C 514.11321,283.875 514.93139,286.12499 515.1875,286.8125 C 515.78382,288.41322 513.88589,288.27186 509.1875,286.34375 C 505.88981,284.99044 505.54249,284.49951 506.09375,282.1875 C 506.99196,278.42025 507.2902,278.06249 509.78125,278.0625 z "
         style="fill:#e8cdba;fill-opacity:1" />
      <path
         id="path3757"
         d="M 420.92857,728.07623 C 409.80169,726.16027 405.3581,725.14387 402.22074,723.79713 C 397.46614,721.75618 392.03419,720.07647 390.18861,720.07647 C 389.30973,720.07647 387.31668,719.46446 385.75961,718.71644 C 384.20254,717.96842 378.15741,715.04342 372.32599,712.21644 C 366.49457,709.38946 360.98683,707.07647 360.08658,707.07647 C 359.18632,707.07647 355.85748,704.84305 352.68916,702.11332 C 349.52083,699.38359 344.95634,695.44609 342.54584,693.36332 C 340.13534,691.28055 336.46801,686.87647 334.39622,683.57647 C 332.32443,680.27647 329.45916,676.43453 328.02895,675.03882 C 326.59874,673.64311 325.42116,672.06811 325.4121,671.53882 C 325.40305,671.00953 322.92805,665.69509 319.9121,659.72897 C 316.89616,653.76284 314.42857,647.88777 314.42857,646.67325 C 314.42857,645.45873 313.30357,642.94018 311.92857,641.07647 C 310.55357,639.21276 309.42857,636.6345 309.42857,635.34701 C 309.42857,634.05951 308.70847,631.90709 307.82835,630.56386 C 306.94823,629.22062 305.86211,626.64896 305.41474,624.84904 C 304.96738,623.04913 303.61377,619.10147 302.40672,616.07647 C 301.19967,613.05147 299.75626,608.77647 299.19915,606.57647 C 298.64203,604.37647 297.53159,600.55147 296.73151,598.07647 C 295.31863,593.70583 294.28719,589.37431 292.4453,580.07647 C 291.955,577.60147 290.99921,573.55147 290.32133,571.07647 C 288.57347,564.69491 287.95592,525.32814 289.55675,522.33696 C 291.78199,518.17906 289.61299,518.83731 284.74843,523.79619 C 280.00652,528.63004 278.1032,530.04672 270.96195,534.05772 C 266.98757,536.29 264.86662,536.59427 263.92304,535.06752 C 262.5315,532.81596 264.83436,530.02739 270.23071,527.42946 C 275.74237,524.77601 292.42857,509.94818 292.42857,507.70381 C 292.42857,507.14396 293.61027,505.45248 295.05456,503.94496 C 297.72471,501.15793 299.50922,498.42756 301.38854,494.25371 C 302.02553,492.839 303.1174,492.06033 304.18148,492.2619 C 306.51193,492.70336 307.08529,498.28655 304.97964,500.03409 C 304.12655,500.74209 303.42857,501.86282 303.42857,502.5246 C 303.42857,503.18638 302.26081,504.81878 300.83356,506.15216 C 296.8864,509.83967 295.42857,513.43116 295.42857,519.46779 C 295.42857,522.48765 294.97857,525.23655 294.42857,525.57647 C 293.17142,526.35343 293.06533,563.73394 294.31808,564.50818 C 294.80731,564.81055 295.46357,566.5246 295.77643,568.3172 C 296.35529,571.63388 297.5989,577.97584 299.25889,586.07647 C 299.76607,588.55147 300.91173,592.54555 301.8048,594.9522 C 302.69788,597.35885 303.42857,600.44115 303.42857,601.80175 C 303.42857,603.16236 305.00357,607.91001 306.92857,612.3521 C 308.85357,616.79419 310.42857,621.4137 310.42857,622.61769 C 310.42857,623.82167 311.32857,625.95092 312.42857,627.34934 C 313.52857,628.74776 314.42857,630.95399 314.42857,632.25206 C 314.42857,633.55014 315.55357,636.26779 316.92857,638.29128 C 318.30357,640.31478 319.42857,642.93039 319.42857,644.10375 C 319.42857,645.27711 321.90357,651.07573 324.92857,656.98956 C 327.95357,662.90339 330.42857,668.00763 330.42857,668.3323 C 330.42857,668.65698 331.66607,670.22812 333.17857,671.82372 C 334.69107,673.41932 337.44816,677.2783 339.30544,680.39923 C 341.16272,683.52017 344.42369,687.53679 346.55205,689.32506 C 348.6804,691.11334 352.90307,694.71397 355.93576,697.32647 C 359.24557,700.17769 362.42128,702.07647 363.88014,702.07647 C 365.21686,702.07647 366.57333,702.50167 366.89452,703.02137 C 367.57474,704.122 384.07204,712.06121 385.77667,712.10827 C 386.41021,712.12577 387.80208,712.80077 388.8697,713.60827 C 389.93732,714.41578 391.70537,715.07647 392.7987,715.07647 C 395.28747,715.07647 401.04462,716.87063 404.74389,718.79907 C 407.46487,720.21753 411.05051,720.96439 425.92857,723.21165 C 434.44471,724.49798 462.0358,723.65977 467.22526,721.95708 C 469.26208,721.28878 472.95357,719.87673 475.42857,718.81918 C 482.93679,715.61096 483.74787,715.29326 488.92857,713.53122 C 491.67857,712.5959 495.83617,710.98595 498.16767,709.95356 C 500.49918,708.92116 502.78324,708.07647 503.24336,708.07647 C 503.70348,708.07647 505.17088,706.90768 506.50426,705.47915 C 507.83763,704.05063 510.60228,702.02352 512.64792,700.97446 C 516.64746,698.92341 517.44383,698.28583 527.6135,688.99299 C 534.82306,682.40503 543.95936,671.01682 547.20187,664.57647 C 548.30951,662.37647 550.16364,659.71923 551.32216,658.67148 C 552.48069,657.62374 553.42857,656.29836 553.42857,655.7262 C 553.42857,655.15404 554.48939,653.53628 555.78596,652.13119 C 557.08252,650.72609 559.02916,647.77647 560.11182,645.57647 C 566.52278,632.54918 571.00266,624.19034 573.07274,621.39319 C 574.36844,619.64239 575.42857,617.53942 575.42857,616.71992 C 575.42857,615.90042 576.47588,613.95789 577.75592,612.4032 C 580.58992,608.96109 588.01602,587.73634 589.98269,577.45746 C 590.77064,573.33921 591.89529,569.07291 592.48191,567.9768 C 594.33297,564.51806 596.99262,546.85975 598.26565,529.57647 C 598.63026,524.62647 599.31915,519.97106 599.79652,519.23112 C 600.30371,518.44496 600.23293,516.99019 599.62624,515.73112 C 596.20534,508.63169 593.42857,501.59017 593.42857,500.01464 C 593.42857,499.01357 592.97857,497.91639 592.42857,497.57647 C 590.87999,496.61939 591.24874,493.08271 592.96582,492.4238 C 594.8997,491.6817 598.42857,494.78296 598.42857,497.2246 C 598.42857,500.15844 601.77618,507.07647 603.19585,507.07647 C 603.90837,507.07647 604.74302,507.86397 605.05063,508.82647 C 606.86955,514.51779 610.74335,520.07647 612.89066,520.07647 C 613.50306,520.07647 615.52771,521.34842 617.38989,522.90303 C 619.71868,524.8472 620.57518,526.25201 620.1335,527.40303 C 619.25366,529.69585 615.12993,529.50894 612.92857,527.07647 C 611.93308,525.97647 610.66127,525.07647 610.10232,525.07647 C 609.54337,525.07647 608.25249,524.3221 607.23368,523.4001 C 604.4496,520.88054 603.66818,522.59315 603.04673,532.57647 C 601.95964,550.03992 599.65041,565.03485 597.1177,571.07647 C 596.31072,573.00147 595.32855,576.97364 594.93509,579.90351 C 593.87656,587.78576 585.83607,610.80347 582.93815,614.24745 C 581.55788,615.88781 580.42857,618.03471 580.42857,619.01834 C 580.42857,620.00197 579.42487,622.08275 578.19813,623.6423 C 576.97139,625.20185 574.93851,628.52504 573.68063,631.02716 C 572.42274,633.52928 570.74569,636.70147 569.95383,638.07647 C 569.16198,639.45147 567.37109,643.21566 565.97407,646.44134 C 564.57705,649.66702 562.19531,653.79245 560.6813,655.60895 C 555.8912,661.35613 551.42857,667.73384 551.42857,668.83237 C 551.42857,670.37987 541.93935,682.42454 534.42857,690.41048 C 528.35106,696.87247 524.93787,699.64121 516.9653,704.57647 C 515.18832,705.67647 512.20048,707.92647 510.32565,709.57647 C 507.11876,712.39878 502.7702,714.36226 485.92857,720.59228 C 482.07857,722.01647 478.25357,723.6109 477.42857,724.13545 C 476.60357,724.66001 475.47857,725.24311 474.92857,725.43122 C 474.37857,725.61933 472.35357,726.32054 470.42857,726.98945 C 466.14514,728.47789 428.11074,729.31294 420.92857,728.07623 z "
         style="fill:black;fill-opacity:1" />
      <path
         id="path3755"
         d="M 655.67857,541.5856 C 652.12119,540.03942 651.26104,537.07647 654.36955,537.07647 C 655.43709,537.07647 656.58865,537.52647 656.92857,538.07647 C 657.67728,539.28791 664.42857,539.42564 664.42857,538.22948 C 664.42857,537.76364 665.32857,536.34478 666.42857,535.07647 C 667.52857,533.80816 668.42857,531.9768 668.42857,531.00679 C 668.42857,530.03678 668.99107,529.05473 669.67857,528.82445 C 671.29051,528.28453 671.17646,511.42436 669.54985,509.79775 C 668.93315,509.18105 668.42857,507.93532 668.42857,507.02948 C 668.42857,506.12364 667.48995,504.30114 666.34274,502.97948 C 664.60042,500.97222 663.41143,500.60266 659.12307,500.73549 C 656.29945,500.82295 653.82558,501.38545 653.62556,501.98549 C 653.42555,502.58553 652.72441,503.07647 652.06748,503.07647 C 651.41054,503.07647 650.10245,503.97647 649.1606,505.07647 C 647.15012,507.42454 644.42857,507.71868 644.42857,505.5879 C 644.42857,503.70828 647.48542,500.07647 649.06748,500.07647 C 649.72441,500.07647 650.44159,499.53741 650.66121,498.87856 C 650.92554,498.08557 653.79686,497.66305 659.15577,497.62856 C 666.49123,497.58136 667.44708,497.80201 669.3398,499.97948 C 670.48862,501.30114 671.42857,503.12364 671.42857,504.02948 C 671.42857,504.93532 671.88515,506.13305 672.44318,506.69108 C 673.00122,507.24912 673.74205,512.03303 674.08947,517.32199 L 674.72114,526.93829 L 670.98405,534.40054 C 667.81598,540.72657 666.78496,541.95519 664.21276,542.46963 C 660.11395,543.28939 659.4373,543.2193 655.67857,541.5856 z "
         style="fill:black;fill-opacity:1" />
      <path
         id="path3753"
         d="M 208.85501,530.11058 C 207.71455,529.64906 204.71743,527.20743 202.19473,524.68473 C 198.80541,521.29541 197.42654,519.02392 196.91289,515.98363 C 196.07964,511.05168 197.20956,499.07647 198.50817,499.07647 C 199.01439,499.07647 199.42857,498.48262 199.42857,497.75681 C 199.42857,497.03099 200.557,495.45599 201.93618,494.25681 C 204.06319,492.40739 205.65683,492.07647 212.43618,492.07647 C 216.83199,492.07647 220.42857,492.47399 220.42857,492.95984 C 220.42857,493.44569 221.32857,494.07856 222.42857,494.36622 C 224.92212,495.0183 225.07965,498.07647 222.6197,498.07647 C 221.62482,498.07647 219.93732,497.41578 218.8697,496.60827 C 217.79117,495.79251 214.73823,495.12594 211.99957,495.10827 C 207.63183,495.08009 206.70832,495.47197 203.88916,498.54977 C 200.46778,502.28505 198.95714,508.46929 200.0866,514.11662 C 200.76362,517.50172 208.34397,525.71361 212.11531,527.14747 C 213.40898,527.63932 217.15869,527.76045 220.448,527.41665 C 225.3935,526.89974 226.42857,527.05317 226.42857,528.30317 C 226.42857,530.7506 213.67731,532.06205 208.85501,530.11058 z "
         style="fill:black;fill-opacity:1" />
      <path
         id="path3751"
         d="M 459.92857,430.18229 C 455.8859,428.42422 453.92857,425.10064 453.92857,419.99421 C 453.92857,416.00264 454.42977,414.62072 456.7013,412.3492 C 458.98542,410.06507 460.3471,409.57647 464.42857,409.57647 C 468.51004,409.57647 469.87172,410.06507 472.15584,412.3492 C 474.43997,414.63332 474.92857,415.995 474.92857,420.07647 C 474.92857,424.07754 474.42871,425.53088 472.33115,427.62843 C 469.5275,430.43209 463.40294,431.69321 459.92857,430.18229 z "
         style="fill:black;fill-opacity:1" />
      <path
         id="path3749"
         d="M 424.92857,419.18229 C 420.8859,417.42422 418.92857,414.10064 418.92857,408.99421 C 418.92857,405.00264 419.42977,403.62072 421.7013,401.3492 C 423.98542,399.06507 425.3471,398.57647 429.42857,398.57647 C 433.51004,398.57647 434.87172,399.06507 437.15584,401.3492 C 439.43997,403.63332 439.92857,404.995 439.92857,409.07647 C 439.92857,413.07754 439.42871,414.53088 437.33115,416.62843 C 434.5275,419.43209 428.40294,420.69321 424.92857,419.18229 z "
         style="fill:black;fill-opacity:1" />
      <path
         id="path3747"
         d="M 426.59983,306.42148 C 427.60564,305.51124 428.42857,304.08417 428.42857,303.25022 C 428.42857,300.70807 425.28191,298.07647 422.2422,298.07647 C 418.53569,298.07647 417.58292,295.62395 420.18287,292.77559 C 421.2869,291.56607 422.48435,288.51938 422.84386,286.00516 C 423.38222,282.24022 423.12584,280.96133 421.39047,278.75516 C 420.23159,277.28188 418.50607,276.07647 417.55599,276.07647 C 416.60591,276.07647 415.40054,275.64844 414.8774,275.1253 C 414.35426,274.60216 410.55653,274.03966 406.43801,273.8753 C 397.8796,273.53376 396.57953,272.0687 400.33154,266.99385 C 402.59563,263.93149 403.10582,257.98798 401.4732,253.69387 C 400.13891,250.18439 396.74997,248.24313 389.8509,247.03634 C 384.47111,246.0953 381.7808,245.24464 377.42857,243.10845 C 374.15447,241.50144 375.31143,238.44646 381.88162,231.35005 C 389.2976,223.3401 389.82461,221.2482 385.96634,215.13629 C 383.33979,210.97558 377.62003,206.07647 375.3889,206.07647 C 374.64591,206.07647 372.85888,204.94679 371.41772,203.56608 L 368.79744,201.05569 L 366.10595,205.16661 L 363.41445,209.27752 L 366.1114,211.427 C 367.59472,212.60921 369.5104,214.12466 370.36846,214.79467 C 371.22652,215.46467 372.72572,216.02717 373.70001,216.04467 C 374.6743,216.06216 375.97759,217.18733 376.59621,218.54506 C 377.59192,220.73039 377.28395,221.56227 373.91219,225.79506 C 371.81736,228.42483 368.16181,232.60653 365.78874,235.08772 C 360.12811,241.00626 359.2499,245.00416 362.96796,247.9288 C 364.46964,249.11002 366.31871,250.07647 367.077,250.07647 C 367.83529,250.07647 369.2371,250.47397 370.19214,250.9598 C 371.14718,251.44563 373.27857,252.39813 374.92857,253.07647 C 376.57857,253.75481 378.62153,254.65208 379.46847,255.07041 C 380.31542,255.48874 383.38494,256.15786 386.28962,256.55736 C 389.44361,256.99114 391.79516,257.86822 392.12771,258.73483 C 392.80434,260.49809 389.76052,266.40289 386.67857,269.3058 C 384.81106,271.06482 384.42857,272.48811 384.42857,277.6782 C 384.42857,283.24246 384.71883,284.15963 387.06343,286.00389 C 390.32002,288.56553 391.02902,288.57116 396.19243,286.07647 C 401.34826,283.58545 410.2025,283.32376 411.08985,285.63617 C 411.44779,286.56894 410.63126,288.29924 409.05847,289.94089 C 407.61202,291.45065 406.42857,293.35878 406.42857,294.18119 C 406.42857,295.00359 405.92152,296.18352 405.30179,296.80325 C 403.85598,298.24906 404.80961,302.01987 407.47942,305.41399 C 409.41916,307.87996 410.13456,308.07647 417.17241,308.07647 C 422.83974,308.07647 425.2359,307.65582 426.59983,306.42148 z "
         style="fill:#eec46c;fill-opacity:1;stroke:none;stroke-width:4.80000019;stroke-miterlimit:4;stroke-dasharray:none;stroke-opacity:1" />
      <path
         id="path3745"
         d="M 481.49019,302.22765 C 482.74595,301.2108 484.95171,297.2733 486.39188,293.47765 L 489.01038,286.57647 L 493.68901,286.27292 C 497.31614,286.0376 498.82399,285.38924 500.39811,283.38806 C 501.51486,281.96834 502.42857,280.03718 502.42857,279.0966 C 502.42857,276.67827 505.40689,274.30182 508.92857,273.91013 L 511.92857,273.57647 L 512.22258,265.71812 C 512.45341,259.54855 512.1402,257.29207 510.76511,255.21812 L 509.01361,252.57647 L 508.25503,256.93311 C 507.27337,262.57092 505.92949,264.07647 501.87871,264.07647 C 498.42285,264.07647 494.42857,267.72547 494.42857,270.88259 C 494.42857,273.11653 491.43034,276.07647 489.16749,276.07647 C 485.49899,276.07647 479.80187,281.67152 478.4106,286.64064 C 477.70029,289.17765 476.06374,292.80856 474.77384,294.70934 C 471.98845,298.81385 471.89541,299.82986 474.08356,302.24773 C 476.19052,304.57589 478.5983,304.56937 481.49019,302.22765 z "
         style="fill:#eec46c;fill-opacity:1" />
      <path
         id="path3743"
         d="M 453.02493,290.56654 C 459.97587,286.95197 463.93079,283.47614 464.25345,280.6982 C 464.67549,277.06466 460.58859,269.04635 454.62291,261.80353 C 446.61039,252.07568 445.25253,250.10458 445.68009,248.82191 C 445.9078,248.13879 448.2984,246.43844 450.99254,245.04335 C 453.68668,243.64825 456.56221,241.31093 457.3826,239.8493 C 458.75133,237.41074 458.68159,236.75448 456.53609,231.88413 C 453.3432,224.63612 453.32117,222.65936 456.42857,222.23529 C 459.42757,221.82602 462.42857,219.34048 462.42857,217.26587 C 462.42857,215.4054 457.69749,209.07647 456.30673,209.07647 C 454.59046,209.07647 444.45464,199.67548 444.44119,198.07116 C 444.43425,197.24324 442.96607,196.07225 441.17857,195.46895 C 439.39107,194.86566 437.20605,194.05734 436.32297,193.67268 C 435.05942,193.1223 434.4421,193.9565 433.4252,197.58849 C 432.25724,201.76006 432.31545,202.44525 434.0308,204.71703 C 435.69663,206.92322 438.31115,208.696 443.36174,211.04389 C 445.97913,212.26064 447.03711,214.90983 445.67107,216.82647 C 444.98507,217.78897 443.93094,219.70147 443.32857,221.07647 C 442.22945,223.58536 442.30576,223.94375 445.70016,232.21516 C 446.71223,234.68135 446.37918,235.22774 440.60579,240.57288 C 432.8161,247.78476 432.38446,250.86072 438.25164,257.34881 C 452.34595,272.9347 455.04368,278.13171 450.02948,280.0381 C 447.38797,281.04241 444.42857,284.70519 444.42857,286.97024 C 444.42857,288.77955 447.33493,292.07647 448.92992,292.07647 C 449.58518,292.07647 451.42793,291.397 453.02493,290.56654 z "
         style="fill:#eec46c;fill-opacity:1" />
      <path
         id="path3741"
         d="M 533.19214,291.17885 C 542.69784,286.26502 552.32426,282.06146 554.05613,282.0682 C 555.22628,282.07275 556.75077,281.39317 557.44389,280.55802 C 558.137,279.72287 560.3296,278.28924 562.31633,277.37219 C 564.30306,276.45513 567.00176,274.88843 568.31343,273.89064 C 569.6251,272.89285 571.69346,272.07647 572.90979,272.07647 C 578.49446,272.07647 586.42857,266.1596 586.42857,261.99483 C 586.42857,258.65825 577.4617,250.07647 573.9754,250.07647 C 572.74513,250.07647 570.92406,249.17647 569.92857,248.07647 C 568.93308,246.97647 567.28223,246.07647 566.26001,246.07647 C 565.23779,246.07647 563.62004,245.69673 562.665,245.2326 C 558.89363,243.39978 554.10686,240.97814 549.67857,238.66272 L 546.42857,236.9634 L 546.41326,241.26993 C 546.40484,243.63853 545.98965,246.22169 545.49063,247.01029 C 544.82916,248.05561 545.27072,248.80074 547.12025,249.76029 C 548.51556,250.48419 550.39325,251.10303 551.29288,251.1355 C 554.27142,251.24298 561.89834,255.56172 562.23967,257.3341 C 562.69136,259.67952 560.91524,259.52815 554.94292,256.71221 C 545.5632,252.28969 542.85857,251.75878 539.71956,253.7239 C 538.18451,254.68489 536.81526,255.53315 536.67678,255.60893 C 536.5383,255.68471 537.09593,257.95841 537.91596,260.66159 C 539.80328,266.88304 539.81385,269.07647 537.9565,269.07647 C 537.03266,269.07647 535.88899,267.0282 534.88555,263.57647 C 534.00616,260.55147 532.93366,258.07647 532.50222,258.07647 C 531.60241,258.07647 530.44616,268.84704 530.43568,277.32647 C 530.42992,281.98544 530.11749,283.07647 528.78909,283.07647 C 527.33615,283.07647 527.2069,281.7782 527.65313,271.66635 L 528.15666,260.25623 L 524.04261,259.83645 C 521.77989,259.60557 519.14107,259.06697 518.17857,258.63958 C 516.57095,257.92572 516.42857,258.75622 516.42857,268.84736 C 516.42857,280.49257 517.68065,285.47677 521.69873,289.82647 C 523.90666,292.21661 529.83515,292.91419 533.19214,291.17885 z "
         style="fill:#d28382;fill-opacity:1" />
      <path
         id="path3733"
         d="M 532.94823,252.97847 C 543.92274,246.78484 545.08024,241.80213 537.79568,232.11154 C 531.28227,223.44678 529.97533,222.75584 521.72503,223.61551 C 513.38881,224.48414 512.14367,225.10662 508.39719,230.27849 C 504.47153,235.6977 504.43625,240.42019 508.28217,245.67643 C 511.94234,250.67881 514.10211,252.53639 518.42857,254.40315 C 523.73033,256.69074 526.92606,256.37717 532.94823,252.97847 z "
         style="fill:#db9595;fill-opacity:1" />
      <path
         id="path3731"
         d="M 344.15459,244.82647 C 346.29077,242.50974 347.10657,238.43591 348.05955,225.32647 L 348.58658,218.07647 L 344.95791,218.07647 C 342.96215,218.07647 340.03252,217.40591 338.44764,216.58633 L 335.56602,215.09619 L 332.87994,220.58633 C 330.23872,225.98481 327.42857,227.86073 327.42857,224.22541 C 327.42857,223.20733 328.57141,220.22497 329.96821,217.59795 C 332.36698,213.08647 332.41385,212.71769 330.81322,210.94901 C 328.5355,208.43216 325.54899,208.59109 319.02228,211.57647 C 316.01623,212.95147 312.80574,214.07647 311.88787,214.07647 C 310.97001,214.07647 307.9792,215.20147 305.24164,216.57647 C 299.27433,219.57368 298.42857,219.64989 298.42857,217.19041 C 298.42857,215.03597 302.71741,212.6977 309.47431,211.16827 C 311.92415,210.61374 315.81933,209.24124 318.13026,208.11826 C 320.4412,206.99527 323.3662,206.07668 324.63026,206.07693 C 326.77259,206.07736 326.92857,205.67035 326.92857,200.07973 C 326.92857,193.88141 326.29068,193.1154 322.665,194.9598 C 321.10512,195.75332 318.95123,196.67877 314.42857,198.49873 C 313.60357,198.83071 311.01066,200.18695 308.66654,201.51259 C 306.32243,202.83823 303.07879,204.21402 301.45846,204.56991 C 297.6665,205.40276 292.42857,211.33504 292.42857,214.79682 C 292.42857,217.923 295.98269,222.07647 298.65775,222.07647 C 300.81938,222.07647 310.87598,228.63724 317.31936,234.25101 C 319.73429,236.35501 322.22629,238.07647 322.85713,238.07647 C 323.48798,238.07647 325.56212,239.40818 327.46634,241.03583 C 329.37057,242.66348 331.43597,244.01348 332.05613,244.03583 C 332.67628,244.05818 333.74388,244.75147 334.42857,245.57647 C 336.33012,247.8677 341.73466,247.45094 344.15459,244.82647 z "
         style="fill:#d28382;fill-opacity:1" />
      <path
         id="path3729"
         d="M 502.53434,232.23014 L 504.14011,228.40415 L 500.03434,225.92988 C 497.77617,224.56902 494.69107,222.84425 493.17857,222.09706 C 489.99618,220.5249 489.51784,218.07647 492.39309,218.07647 C 494.52092,218.07647 503.71761,222.84326 504.2619,224.22827 C 504.77643,225.53753 506.59453,225.23625 508.48088,223.52913 C 509.87524,222.26725 510.09511,220.7914 509.67271,215.52913 C 509.22963,210.00928 509.39139,209.07647 510.79166,209.07647 C 511.84806,209.07647 512.42857,209.91874 512.42857,211.45147 C 512.42857,212.75772 512.70982,215.23272 513.05357,216.95147 C 513.72357,220.30147 515.54099,220.80399 522.18263,219.47566 C 525.0524,218.9017 525.24006,218.54406 526.38032,211.47566 C 527.26518,205.99044 527.97295,204.07647 529.11647,204.07647 C 530.4059,204.07647 530.54832,205.01998 529.98438,209.82647 C 529.61333,212.98897 529.1,216.30462 528.84363,217.19458 C 528.52967,218.28447 529.37177,219.22451 531.42329,220.07428 C 533.09847,220.76816 535.53803,222.60627 536.84453,224.15897 C 539.1887,226.94485 539.22778,226.95303 539.81063,224.77926 C 540.13548,223.56773 540.40741,220.80356 540.41492,218.63667 C 540.43394,213.14786 542.38144,203.09646 544.04093,199.92218 C 547.28511,193.71667 543.98992,188.07647 537.12028,188.07647 C 532.9294,188.07647 525.57217,189.85036 523.97857,191.24505 C 523.45607,191.70233 522.27367,192.07647 521.35101,192.07647 C 520.42836,192.07647 519.12314,192.73956 518.45053,193.55001 C 517.77792,194.36045 515.69285,195.31147 513.81704,195.66337 C 511.94123,196.01527 510.15989,196.70218 509.85851,197.18983 C 509.55712,197.67748 508.50684,198.07647 507.52454,198.07647 C 506.54224,198.07647 504.92406,198.97647 503.92857,200.07647 C 502.93308,201.17647 501.58308,202.07647 500.92857,202.07647 C 500.27406,202.07647 498.8813,203.02811 497.83356,204.19123 C 496.78581,205.35435 495.02857,206.71103 493.92857,207.20608 C 492.82857,207.70113 490.57857,208.9928 488.92857,210.07647 C 487.27857,211.16014 485.01008,212.45658 483.88747,212.95745 C 482.76487,213.45832 481.24727,214.59 480.51503,215.47229 C 479.78279,216.35459 478.69525,217.07647 478.09829,217.07647 C 477.50132,217.07647 475.30642,218.7428 473.22073,220.77942 C 468.84663,225.05062 468.36559,228.31608 471.60288,231.76202 C 473.34187,233.61309 474.83165,234.07647 479.04387,234.07647 C 481.94053,234.07647 484.58865,234.52647 484.92857,235.07647 C 485.26849,235.62647 489.00755,236.07189 493.23759,236.0663 L 500.92857,236.05613 L 502.53434,232.23014 z "
         style="fill:#d28382;fill-opacity:1" />
      <path
         id="path3727"
         d="M 553.79983,232.07647 C 557.06309,232.07647 560.42857,229.62613 560.42857,227.25022 C 560.42857,224.12048 557.28347,222.07528 552.52358,222.10974 C 547.24901,222.14793 544.10794,224.23349 543.0647,228.39013 C 542.45207,230.83101 542.75036,231.30983 545.65038,232.54073 C 547.67141,233.39855 549.29289,233.57633 549.87857,233.00431 C 550.40107,232.494 552.16564,232.07647 553.79983,232.07647 z "
         style="fill:#eec46c;fill-opacity:1" />
      <path
         id="path3725"
         d="M 351.21841,212.1822 C 353.259,211.14035 357.06607,208.2964 359.67857,205.86231 C 364.33336,201.52541 364.42857,201.31552 364.42857,195.39144 C 364.42857,188.05054 362.58235,185.2635 355.29485,181.6032 C 347.51881,177.69751 344.92648,178.13501 339.15838,184.32647 C 328.18768,196.10239 327.73566,203.94 337.61448,211.09619 C 342.39134,214.55652 346.00325,214.84487 351.21841,212.1822 z "
         style="fill:#db9595;fill-opacity:1" />
      <path
         id="path3723"
         d="M 490.77381,202.01955 C 492.21203,200.88824 494.11055,198.30074 494.99273,196.26955 C 495.87492,194.23836 497.00887,191.79508 497.51264,190.84004 C 498.0164,189.885 498.42857,188.28585 498.42857,187.28638 C 498.42857,185.3305 502.94379,175.53931 504.98148,173.07647 C 505.66407,172.25147 506.50598,169.32647 506.8524,166.57647 C 508.726,151.70328 508.77636,152.64325 505.92424,149.25369 C 503.53456,146.41372 502.70295,146.08422 498.08968,146.14955 C 494.85332,146.19538 491.80977,146.92937 489.92857,148.1177 C 485.06344,151.19092 480.24815,153.14322 475.10123,154.12924 C 468.40141,155.41275 468.02036,155.8621 471.29506,158.61758 C 472.87581,159.9477 474.73212,162.39508 475.42018,164.05622 C 476.84041,167.48495 477.00345,167.53444 480.42857,165.57647 C 483.71108,163.70002 486.42857,163.7019 486.42857,165.58063 C 486.42857,166.42859 484.23934,168.04071 481.41035,169.27597 C 478.65033,170.48112 476.52703,171.87184 476.6919,172.36645 C 476.85677,172.86107 481.13997,174.59415 486.21012,176.21775 C 492.25205,178.15254 495.42857,179.67055 495.42857,180.62311 C 495.42857,182.62783 493.71264,182.46222 484.71667,179.58923 C 475.6062,176.67968 474.42857,176.56376 474.42857,178.57647 C 474.42857,179.40147 475.12278,180.07647 475.97127,180.07647 C 478.22394,180.07647 488.42857,187.88441 488.42857,189.60801 C 488.42857,192.09145 485.58508,191.25518 479.99987,187.12914 C 474.62947,183.16179 473.42857,182.97437 473.42857,186.10359 C 473.42857,187.03517 472.34197,189.39857 471.0139,191.35559 C 468.49747,195.06375 468.59592,196.07647 471.47279,196.07647 C 472.41378,196.07647 473.79339,196.81112 474.53859,197.70903 C 476.90181,200.55654 482.83318,203.95665 485.54371,204.01764 C 486.98204,204.04999 489.33558,203.15086 490.77381,202.01955 z "
         style="fill:#d28382;fill-opacity:1" />
      <path
         id="path3721"
         d="M 323.3732,188.86028 C 322.30365,188.46463 321.42857,187.50482 321.42857,186.72738 C 321.42857,185.25665 327.55101,180.07647 329.28927,180.07647 C 330.68634,180.07647 334.42857,175.12053 334.42857,173.27035 C 334.42857,171.2579 331.51224,168.07647 329.66749,168.07647 C 328.00671,168.07647 322.87267,171.92588 313.17857,180.43957 C 307.63869,185.30489 306.42857,186.91008 306.42857,189.39332 C 306.42857,191.05744 307.1267,193.19042 307.97997,194.13327 C 309.4376,195.74393 310.00849,195.65812 317.4246,192.7136 C 323.56757,190.27457 324.88662,189.42013 323.3732,188.86028 z "
         style="fill:#eec46c;fill-opacity:1" />
      <path
         id="path3719"
         d="M 371.19214,195.2326 C 372.14718,194.76847 373.93496,193.86847 375.165,193.2326 C 376.39504,192.59673 377.87928,192.07647 378.46331,192.07647 C 379.04734,192.07647 381.38797,191.17647 383.66471,190.07647 C 385.94144,188.97647 388.7032,188.07647 389.80195,188.07647 C 393.4511,188.07647 396.42857,184.18022 396.42857,179.40503 C 396.42857,174.08932 393.69252,170.80189 378.32322,157.65102 C 367.19502,148.12908 360.80245,144.07647 356.91079,144.07647 C 354.04243,144.07647 348.42857,148.6358 348.42857,150.96536 C 348.42857,151.90647 348.05443,153.10397 347.59715,153.62647 C 346.18819,155.23637 344.42857,162.59507 344.42857,166.87739 C 344.42857,169.11527 344.03248,171.98806 343.54837,173.26137 C 342.69987,175.4931 342.85292,175.57752 347.79837,175.60559 C 350.61998,175.6216 353.71607,176.00725 354.67857,176.46258 C 356.1291,177.14878 356.43045,176.80154 356.43958,174.43345 C 356.46172,168.68463 357.67253,164.07647 359.1609,164.07647 C 360.3808,164.07647 360.5127,165.25993 359.93451,171.01735 C 359.55113,174.83483 359.53902,178.44616 359.9076,179.04253 C 360.33067,179.72708 362.96428,178.45851 367.05106,175.60165 C 370.61139,173.1128 374.21083,171.07647 375.0498,171.07647 C 378.15604,171.07647 375.77777,174.62128 370.19134,178.31802 L 364.47337,182.10179 L 366.44723,185.33913 C 367.53286,187.11967 368.42278,190.26397 368.42483,192.32647 C 368.42886,196.36699 368.56459,196.50954 371.19214,195.2326 z "
         style="fill:#d28382;fill-opacity:1" />
      <path
         id="path3717"
         d="M 416.55081,194.32647 C 420.63711,191.33686 423.31668,190.07647 425.58626,190.07647 C 429.92602,190.07647 431.13514,187.74019 430.0006,181.54698 C 429.09417,176.59896 428.7462,176.03179 426.95295,176.57947 C 423.80403,177.54118 414.01476,180.00113 413.17857,180.04084 C 412.76607,180.06044 412.42857,179.21602 412.42857,178.16436 C 412.42857,176.69245 413.40698,176.08943 416.67857,175.54493 C 419.01607,175.1559 423.29107,173.95901 426.17857,172.88518 C 430.52344,171.26938 431.42857,170.51645 431.42857,168.51804 C 431.42857,166.68806 430.55144,165.73682 427.80645,164.58989 C 425.81428,163.7575 423.15108,163.07647 421.88823,163.07647 C 418.50686,163.07647 416.42857,162.05669 416.42857,160.39752 C 416.42857,159.20071 417.4613,159.06158 422.07055,159.63747 C 425.17364,160.02518 428.76872,160.89035 430.05963,161.56008 C 432.16816,162.654 432.79462,162.41177 436.22252,159.17712 L 440.0383,155.57647 L 436.48344,152.69864 C 434.52826,151.11584 431.49684,149.21016 429.74695,148.4638 C 427.99706,147.71743 426.31339,146.69911 426.00545,146.20087 C 424.98389,144.54794 415.50582,140.07647 413.0237,140.07647 C 411.68078,140.07647 409.19749,141.24147 407.5053,142.66536 C 404.92872,144.8334 404.42857,145.96899 404.42857,149.65101 C 404.42857,153.97095 402.94692,161.63767 401.35085,165.57647 C 400.90511,166.67647 400.29233,170.72647 399.98911,174.57647 C 399.68589,178.42647 399.16283,183.74648 398.82675,186.39871 C 398.30312,190.53102 398.54201,191.56832 400.49644,193.64872 C 402.39296,195.66746 403.73594,196.07647 408.46803,196.07647 C 412.30997,196.07647 414.93597,195.50792 416.55081,194.32647 z "
         style="fill:#d28382;fill-opacity:1" />
      <path
         id="path3715"
         d="M 465.93885,190.76619 C 468.47477,188.23026 469.39335,186.3004 469.86569,182.51619 C 470.20481,179.79934 470.92018,176.19452 471.45542,174.50547 C 473.21104,168.9652 472.63703,166.08493 469.0655,162.51339 L 465.70242,159.15032 L 453.8155,159.26646 L 441.92857,159.38259 L 438.67857,162.62953 C 436.70849,164.59776 435.42857,166.88187 435.42857,168.42941 C 435.42857,169.83353 434.92224,172.09363 434.30339,173.45185 C 432.3835,177.66555 434.10324,184.95114 437.91829,188.76619 C 440.70821,191.55611 441.99096,192.09214 446.07857,192.17615 C 448.74607,192.23097 452.05357,192.63612 453.42857,193.07647 C 458.99091,194.85784 462.49414,194.2109 465.93885,190.76619 z "
         style="fill:#db9595;fill-opacity:1" />
      <path
         id="path2824"
         d="M 447.70899,144.17397 C 449.78822,143.02034 452.57954,142.07647 453.91193,142.07647 C 455.24433,142.07647 457.59314,141.53945 459.13152,140.88311 C 465.52602,138.15489 467.04916,134.85306 463.42583,131.57399 C 461.68968,130.00279 460.90884,129.91561 457.55981,130.919 C 455.43501,131.55561 452.73013,132.07647 451.54898,132.07647 C 449.59847,132.07647 447.74395,132.79764 443.42857,135.23428 C 442.60357,135.70011 441.02857,136.48488 439.92857,136.97821 C 437.26524,138.17268 431.90782,143.88905 432.70477,144.686 C 433.05149,145.03272 434.81869,146.34487 436.63187,147.60188 C 439.82242,149.81377 439.99297,149.82914 441.92857,148.07942 C 443.02857,147.08505 445.62976,145.3276 447.70899,144.17397 z "
         style="fill:#eec46c;fill-opacity:1" />
      <path
         transform="translate(170,105.7143)"
         d="M 171.42857 400.21933 A 52.142857 52.142857 0 1 1  67.142857,400.21933 A 52.142857 52.142857 0 1 1  171.42857 400.21933 z"
         sodipodi:ry="52.142857"
         sodipodi:rx="52.142857"
         sodipodi:cy="400.21933"
         sodipodi:cx="119.28571"
         id="path6529"
         style="opacity:1;fill:url(#radialGradient7422);fill-opacity:1;fill-rule:nonzero;stroke:none;stroke-width:4.80000019;stroke-linecap:round;stroke-linejoin:round;stroke-miterlimit:4;stroke-dasharray:none;stroke-dashoffset:0;stroke-opacity:1"
         sodipodi:type="arc" />
      <path
         transform="translate(476.4287,116.4285)"
         d="M 171.42857 400.21933 A 52.142857 52.142857 0 1 1  67.142857,400.21933 A 52.142857 52.142857 0 1 1  171.42857 400.21933 z"
         sodipodi:ry="52.142857"
         sodipodi:rx="52.142857"
         sodipodi:cy="400.21933"
         sodipodi:cx="119.28571"
         id="path7424"
         style="opacity:1;fill:url(#radialGradient7426);fill-opacity:1;fill-rule:nonzero;stroke:none;stroke-width:4.80000019;stroke-linecap:round;stroke-linejoin:round;stroke-miterlimit:4;stroke-dasharray:none;stroke-dashoffset:0;stroke-opacity:1"
         sodipodi:type="arc" />
      <path
         id="path1933"
         d="M 416.42857,789.79222 C 416.15357,789.52004 412.68549,789.01469 408.72174,788.66921 C 401.52815,788.04223 395.04445,786.92606 388.42857,785.17574 C 375.69512,781.80694 372.22853,780.75695 366.42857,778.51221 C 353.47799,773.49998 336.98854,765.45372 329.51729,760.50083 C 327.09109,758.89243 323.80915,756.78725 322.22409,755.82265 C 311.25163,749.14527 289.313,729.89375 277.92857,716.95258 C 274.08678,712.58545 272.97331,711.26481 267.42857,704.49896 C 262.99819,699.09288 249.42857,679.00655 249.42857,677.85459 C 249.42857,677.44798 247.85357,674.65318 245.92857,671.64392 C 244.00357,668.63466 242.42857,665.89271 242.42857,665.55068 C 242.42857,665.20866 240.25337,660.57454 237.59479,655.25265 C 234.93621,649.93075 231.50756,641.97647 229.97557,637.57647 C 228.44358,633.17647 226.60131,628.22647 225.88164,626.57647 C 220.96217,615.29757 213.06917,578.08267 211.84727,560.40544 C 211.46059,554.81137 210.86111,549.77634 210.51509,549.21647 C 210.16908,548.6566 208.6542,547.97516 207.14869,547.70216 C 197.88406,546.02216 191.55712,540.49057 186.33984,529.50912 C 182.51995,521.46892 182.42857,521.01696 182.42857,510.16296 C 182.42857,504.05047 182.82607,498.26794 183.3119,497.3129 C 183.79773,496.35786 184.6673,494.45147 185.24427,493.07647 C 188.57092,485.14864 189.88025,483.12244 193.78663,479.85711 C 198.28047,476.10073 206.43728,473.07647 212.07489,473.07647 C 215.99192,473.07647 216.69451,471.95915 218.36303,463.07647 C 219.82958,455.26902 224.07878,439.74521 225.89038,435.57647 C 226.60741,433.92647 227.74623,431.00147 228.42107,429.07647 C 233.59434,414.31973 245.97844,389.35309 254.42857,376.64474 C 262.02812,365.2156 273.96609,349.61366 279.12793,344.36472 C 280.86507,342.59826 282.65746,340.57326 283.111,339.86472 C 284.1284,338.27532 297.28843,326.03976 303.98612,320.45606 C 306.70447,318.18984 310.56298,314.92734 312.56059,313.20606 C 314.55819,311.48479 316.54072,310.07647 316.96619,310.07647 C 317.39167,310.07647 319.35659,308.83897 321.33267,307.32647 C 323.30876,305.81397 326.95123,303.50916 329.42706,302.20466 C 331.90289,300.90017 334.60357,299.27817 335.42857,298.60021 C 339.44434,295.3002 365.28527,283.93297 376.92857,280.34469 C 379.65559,279.50426 379.95701,278.9778 380.24109,274.55911 C 380.47741,270.88328 381.26981,268.88238 383.49109,266.35248 C 385.1067,264.5124 386.42857,262.62068 386.42857,262.14866 C 386.42857,261.09398 383.92659,260.07647 381.33321,260.07647 C 380.27073,260.07647 378.62004,259.67897 377.665,259.19314 C 376.70996,258.70731 374.57857,257.75481 372.92857,257.07647 C 371.27857,256.39813 369.14718,255.44563 368.19214,254.9598 C 367.2371,254.47397 365.79026,254.07647 364.97694,254.07647 C 364.16361,254.07647 361.85884,252.63712 359.85522,250.87792 C 356.43837,247.87789 356.24062,247.38429 356.6691,242.92502 C 357.0622,238.83393 357.89771,237.33706 362.65812,232.19525 C 369.96596,224.3019 372.95608,220.07935 371.24666,220.06676 C 370.52171,220.06143 367.95274,218.48643 365.53784,216.56676 C 357.26715,209.9922 352.86676,212.72992 352.08414,224.93702 C 351.09215,240.40992 350.14455,244.03222 346.12524,247.71564 C 341.24024,252.19241 337.49042,252.1713 330.91713,247.63005 C 328.17342,245.73452 324.22079,243.24003 322.13351,242.08674 C 320.04623,240.93345 316.67123,238.51108 314.63351,236.70369 C 309.00295,231.70957 301.65341,226.97734 297.93177,225.94974 C 293.817,224.8136 288.42857,218.88395 288.42857,215.49201 C 288.42857,209.94257 295.40043,201.90047 301.34282,200.5953 C 305.23903,199.73955 306.04495,198.41505 304.02653,196.18472 C 303.00529,195.05626 302.42857,192.59086 302.42857,189.35367 C 302.42857,184.29593 302.44016,184.27804 310.17857,177.38752 C 322.64079,166.29078 325.8579,164.07647 329.51776,164.07647 C 333.63813,164.07647 338.42188,168.33016 338.44388,172.01356 C 338.45596,174.03548 338.66381,174.25984 339.42857,173.07647 C 339.96173,172.25147 340.40484,169.48207 340.41326,166.92226 C 340.43261,161.04122 344.59029,148.60221 347.62145,145.3567 C 350.54021,142.23155 354.64867,140.07647 357.68774,140.07647 C 362.52124,140.07647 375.98816,149.81045 390.50351,163.79595 L 396.07844,169.16739 L 397.37017,164.87193 C 398.08062,162.50942 399.0594,159.27182 399.54523,157.67724 C 400.03107,156.08267 400.42857,152.6297 400.42857,150.00397 C 400.42857,144.69314 403.32882,140.21365 408.49803,137.54055 C 412.5771,135.43118 414.73513,135.69763 421.58749,139.15669 L 427.68938,142.23691 L 431.95456,138.05096 C 435.95777,134.12211 438.90414,132.00503 442.42857,130.52501 C 443.25357,130.17857 444.82857,129.51658 445.92857,129.05393 C 447.89143,128.22837 450.64069,127.68663 459.23184,126.43253 C 463.03407,125.87749 463.8782,126.13306 466.48184,128.6275 C 470.4858,132.46354 470.56723,137.66778 466.67857,141.20073 C 463.3867,144.19147 459.22425,146.07647 455.91193,146.07647 C 454.57954,146.07647 451.78822,147.01887 449.70899,148.1707 C 444.84509,150.86515 443.57518,152.07647 445.61426,152.07647 C 446.48639,152.07647 448.48889,152.76598 450.06426,153.60872 C 453.62712,155.51466 462.80089,154.71979 468.8272,151.98299 C 471.08296,150.95856 474.12781,150.11051 475.59355,150.09843 C 477.05928,150.08635 481.6559,148.27647 485.80826,146.07647 C 495.66327,140.85509 501.64159,140.56858 506.77055,145.07186 C 511.08944,148.8639 512.8016,152.96988 512.07578,157.79451 C 511.76285,159.87459 511.13315,164.11717 510.67645,167.22247 C 510.21974,170.32778 509.23174,173.60871 508.48088,174.51343 C 506.70415,176.65426 502.42857,185.89406 502.42857,187.59286 C 502.42857,188.31765 501.51726,191.03665 500.40344,193.6351 C 499.28962,196.23354 498.54592,198.52715 498.75078,198.73201 C 498.95563,198.93687 500.32016,198.16299 501.78305,197.01228 C 503.24594,195.86157 506.9618,194.03474 510.04051,192.95266 C 513.11922,191.87058 516.60351,190.36722 517.78337,189.61187 C 521.4998,187.23259 532.57707,184.07647 537.21137,184.07647 C 541.05013,184.07647 542.19901,184.61162 545.54622,187.95882 C 549.6238,192.03641 550.4279,195.34068 548.30701,199.30361 C 547.07812,201.59981 544.42991,213.38667 544.42632,216.5761 C 544.42424,218.42067 544.97765,218.55029 551.53164,218.24028 C 558.1588,217.92682 558.83486,218.09154 561.53389,220.67737 C 565.49973,224.47689 565.53628,229.64103 561.62385,233.38938 C 560.08126,234.86728 557.95983,236.07647 556.90957,236.07647 C 553.51871,236.07647 557.37862,238.85983 563.96486,241.164 C 567.2449,242.31151 570.60357,243.82581 571.42857,244.52912 C 572.25357,245.23242 574.20026,246.11044 575.75454,246.48028 C 577.30882,246.85012 581.24632,249.74513 584.50454,252.91365 C 591.43448,259.65281 592.13902,262.89026 587.79831,268.04891 C 584.93996,271.44586 576.69573,276.07647 573.50622,276.07647 C 572.41236,276.07647 569.94057,277.08897 568.01336,278.32647 C 558.65516,284.33554 555.55004,286.07647 554.1905,286.07647 C 553.37726,286.07647 547.6487,288.48606 541.46037,291.43111 C 533.15182,295.38518 530.69532,296.95529 532.06871,297.43392 C 536.28348,298.90278 558.64243,313.96139 565.92857,320.23833 C 583.80896,335.64209 601.11653,355.35667 613.84792,374.82193 C 623.78007,390.00737 625.80035,393.74666 635.96245,415.75325 C 643.23695,431.50658 654.41831,470.22275 654.4311,479.70211 C 654.43338,481.39588 655.32461,481.58101 663.6811,481.6236 C 673.24289,481.67234 676.08234,482.54274 682.74241,487.46666 C 688.83917,491.97411 689.57738,494.554 689.12733,509.78068 C 688.71702,523.66289 686.45899,535.45195 683.67857,538.2283 C 682.99107,538.91479 682.42633,540.17397 682.4236,541.02647 C 682.41,545.26985 671.77488,553.40796 663.95662,555.15761 L 658.63237,556.34912 L 657.9622,562.9628 C 657.59361,566.60032 656.88495,570.92647 656.3874,572.57647 C 655.88986,574.22647 654.76635,580.30147 653.89072,586.07647 C 652.33095,596.36357 646.92679,619.0961 645.33371,622.07144 C 644.8905,622.89921 643.0872,627.84373 641.32637,633.05926 C 634.43863,653.46066 618.30464,683.45089 605.17857,700.25162 C 602.56607,703.59549 600.42487,706.61153 600.42034,706.95393 C 600.40549,708.077 581.87433,727.61377 573.10284,735.75385 C 560.18371,747.74299 536.10281,764.07123 521.92857,770.45296 C 518.62857,771.93873 515.18047,773.56605 514.26613,774.06921 C 506.77193,778.19328 476.88851,786.96817 464.92857,788.55656 C 458.59404,789.39785 417.09828,790.45505 416.42857,789.79222 z M 464.26134,783.57158 C 493.32362,778.80217 519.31451,769.01501 540.2287,754.96522 C 542.59377,753.37641 544.76536,752.07647 545.05444,752.07647 C 545.34353,752.07647 550.13686,748.58897 555.70629,744.32647 C 579.08247,726.43579 604.97388,696.64507 617.57021,673.14569 C 619.41731,669.69979 622.05357,664.78204 623.42857,662.21734 C 625.5939,658.1785 629.13793,650.60516 634.02362,639.57647 C 636.33421,634.36066 640.18388,622.86436 642.39516,614.57647 C 643.56912,610.17647 644.95629,605.67647 645.47778,604.57647 C 647.0662,601.22592 650.3115,583.37058 652.02097,568.57647 C 652.91071,560.87647 653.78062,554.07043 653.9541,553.45194 C 654.12757,552.83345 656.44279,552.00876 659.09904,551.6193 C 661.75528,551.22984 665.72857,550.105 667.92857,549.11967 C 672.43699,547.10045 678.42857,541.56706 678.42857,539.42263 C 678.42857,538.64354 679.06277,537.00944 679.83791,535.79129 C 683.68261,529.74926 686.66229,504.41231 684.35558,497.37645 C 681.82133,489.64653 670.51917,484.37212 659.1081,485.59415 C 654.39425,486.09896 652.57467,485.93143 651.80151,484.92142 C 651.23527,484.1817 649.76998,477.96779 648.54533,471.11273 C 647.32067,464.25767 645.96377,458.18267 645.52999,457.61273 C 645.09621,457.04279 643.96785,453.65147 643.02253,450.07647 C 640.18082,439.32968 636.35387,427.93515 633.45057,421.57647 C 631.94383,418.27647 628.98554,411.75147 626.8766,407.07647 C 624.76766,402.40147 622.52929,397.90147 621.90245,397.07647 C 621.27561,396.25147 619.27413,392.87647 617.45472,389.57647 C 605.12312,367.20978 584.81708,342.66087 563.09789,323.86198 C 558.02383,319.47017 542.07916,308.07647 541.00719,308.07647 C 540.74409,308.07647 538.50003,306.70725 536.02038,305.03375 C 530.6685,301.42181 511.40279,291.79786 506.42857,290.25152 C 504.3583,289.60794 500.73788,289.45207 497.56573,289.86997 L 492.20288,290.57647 L 490.01088,296.45751 C 485.89367,307.50377 477.15813,311.57873 471.11566,305.27175 C 468.076,302.09903 467.42387,296.15518 469.89081,294.10781 C 471.71992,292.58978 475.65691,282.25495 474.88307,281.00284 C 474.56817,280.49334 472.98709,280.07647 471.36955,280.07647 C 468.96261,280.07647 468.42857,280.49646 468.42857,282.38938 C 468.42857,285.47242 463.13321,290.21605 454.56426,294.80916 C 444.94124,299.96727 435.87972,288.63593 442.92857,280.25884 C 444.30357,278.62474 445.42857,277.01522 445.42857,276.68211 C 445.42857,276.34901 441.16218,276.07647 435.9477,276.07647 L 426.46683,276.07647 L 426.99408,280.32647 C 427.28406,282.66397 427.15212,286.59198 426.70087,289.05539 C 425.92205,293.30701 426.04657,293.68018 429.15449,296.40898 C 433.45215,300.18237 433.67937,305.16148 429.74148,309.27175 C 427.1618,311.96436 426.66961,312.07647 417.42857,312.07647 C 408.21614,312.07647 407.6926,311.95837 405.23785,309.32647 C 401.75139,305.58841 400.42857,302.78344 400.42857,299.12864 C 400.42857,296.16648 400.71394,295.28585 403.28092,290.32647 C 404.74929,287.48958 403.65769,287.43595 398.19243,290.07647 C 391.88942,293.12176 388.13821,292.71238 383.43834,288.46633 C 378.87272,284.34157 378.82631,284.34349 365.92857,289.19094 C 355.73664,293.02145 347.36487,297.08701 335.42857,304.00256 C 325.08662,309.99439 309.43268,320.75237 309.42174,321.87545 C 309.41798,322.26101 307.73277,323.70147 305.67684,325.07647 C 298.50323,329.87414 278.59661,351.05227 267.60842,365.57647 C 265.72985,368.05956 253.12192,387.55984 251.24866,390.87959 C 238.31651,413.79759 226.44436,444.65268 221.93028,467.07647 C 220.98916,471.75147 219.80137,476.09054 219.29074,476.71884 C 218.78011,477.34715 215.05497,478.02823 211.01265,478.23236 C 204.59368,478.5565 203.02055,479.04189 198.5898,482.06542 C 194.22316,485.04519 193.07302,486.57529 190.33154,493.0519 C 187.45104,499.85697 187.14778,501.54511 187.16007,510.70656 C 187.17293,520.28219 187.37187,521.24872 190.79489,528.36546 C 195.08658,537.28826 199.92529,541.41499 208.08104,543.10812 C 214.38846,544.41754 216.42857,547.19571 216.42857,554.47559 C 216.42857,563.51343 220.63208,591.36693 223.89032,603.91898 C 225.24788,609.14887 231.37125,628.02378 234.85234,637.70877 C 236.68917,642.81912 248.26255,666.68923 252.39594,673.89245 C 254.07368,676.81624 257.92322,682.89124 260.95046,687.39245 C 268.46377,698.56401 269.69489,700.29073 271.42857,702.08857 C 272.25357,702.9441 274.05357,705.11913 275.42857,706.92198 C 279.28345,711.97634 291.88733,725.4169 299.06295,732.12526 C 304.28625,737.00843 323.72331,752.07647 324.79907,752.07647 C 325.15658,752.07647 327.76926,753.70729 330.60504,755.70051 C 346.95628,767.19352 378.25857,779.22395 401.66005,783.00911 C 408.40774,784.10054 415.05357,785.17591 416.42857,785.39882 C 417.80357,785.62173 425.69416,785.86539 433.96321,785.94029 C 445.77002,786.04723 452.27482,785.53869 464.26134,783.57158 z M 420.92857,728.07623 C 409.80169,726.16027 405.3581,725.14387 402.22074,723.79713 C 397.46614,721.75618 392.03419,720.07647 390.18861,720.07647 C 389.30973,720.07647 387.31668,719.46446 385.75961,718.71644 C 384.20254,717.96842 378.15741,715.04342 372.32599,712.21644 C 366.49457,709.38946 360.98683,707.07647 360.08658,707.07647 C 359.18632,707.07647 355.85748,704.84305 352.68916,702.11332 C 349.52083,699.38359 344.95634,695.44609 342.54584,693.36332 C 340.13534,691.28055 336.46801,686.87647 334.39622,683.57647 C 332.32443,680.27647 329.45916,676.43453 328.02895,675.03882 C 326.59874,673.64311 325.42116,672.06811 325.4121,671.53882 C 325.40305,671.00953 322.92805,665.69509 319.9121,659.72897 C 316.89616,653.76284 314.42857,647.88777 314.42857,646.67325 C 314.42857,645.45873 313.30357,642.94018 311.92857,641.07647 C 310.55357,639.21276 309.42857,636.6345 309.42857,635.34701 C 309.42857,634.05951 308.70847,631.90709 307.82835,630.56386 C 306.94823,629.22062 305.86211,626.64896 305.41474,624.84904 C 304.96738,623.04913 303.61377,619.10147 302.40672,616.07647 C 301.19967,613.05147 299.75626,608.77647 299.19915,606.57647 C 298.64203,604.37647 297.53159,600.55147 296.73151,598.07647 C 295.31863,593.70583 294.28719,589.37431 292.4453,580.07647 C 291.955,577.60147 290.99921,573.55147 290.32133,571.07647 C 288.57347,564.69491 287.95592,525.32814 289.55675,522.33696 C 291.78199,518.17906 289.61299,518.83731 284.74843,523.79619 C 280.00652,528.63004 278.1032,530.04672 270.96195,534.05772 C 266.98757,536.29 264.86662,536.59427 263.92304,535.06752 C 262.5315,532.81596 264.83436,530.02739 270.23071,527.42946 C 275.74237,524.77601 292.42857,509.94818 292.42857,507.70381 C 292.42857,507.14396 293.61027,505.45248 295.05456,503.94496 C 297.72471,501.15793 299.50922,498.42756 301.38854,494.25371 C 302.02553,492.839 303.1174,492.06033 304.18148,492.2619 C 306.51193,492.70336 307.08529,498.28655 304.97964,500.03409 C 304.12655,500.74209 303.42857,501.86282 303.42857,502.5246 C 303.42857,503.18638 302.26081,504.81878 300.83356,506.15216 C 296.8864,509.83967 295.42857,513.43116 295.42857,519.46779 C 295.42857,522.48765 294.97857,525.23655 294.42857,525.57647 C 293.17142,526.35343 293.06533,563.73394 294.31808,564.50818 C 294.80731,564.81055 295.46357,566.5246 295.77643,568.3172 C 296.35529,571.63388 297.5989,577.97584 299.25889,586.07647 C 299.76607,588.55147 300.91173,592.54555 301.8048,594.9522 C 302.69788,597.35885 303.42857,600.44115 303.42857,601.80175 C 303.42857,603.16236 305.00357,607.91001 306.92857,612.3521 C 308.85357,616.79419 310.42857,621.4137 310.42857,622.61769 C 310.42857,623.82167 311.32857,625.95092 312.42857,627.34934 C 313.52857,628.74776 314.42857,630.95399 314.42857,632.25206 C 314.42857,633.55014 315.55357,636.26779 316.92857,638.29128 C 318.30357,640.31478 319.42857,642.93039 319.42857,644.10375 C 319.42857,645.27711 321.90357,651.07573 324.92857,656.98956 C 327.95357,662.90339 330.42857,668.00763 330.42857,668.3323 C 330.42857,668.65698 331.66607,670.22812 333.17857,671.82372 C 334.69107,673.41932 337.44816,677.2783 339.30544,680.39923 C 341.16272,683.52017 344.42369,687.53679 346.55205,689.32506 C 348.6804,691.11334 352.90307,694.71397 355.93576,697.32647 C 359.24557,700.17769 362.42128,702.07647 363.88014,702.07647 C 365.21686,702.07647 366.57333,702.50167 366.89452,703.02137 C 367.57474,704.122 384.07204,712.06121 385.77667,712.10827 C 386.41021,712.12577 387.80208,712.80077 388.8697,713.60827 C 389.93732,714.41578 391.70537,715.07647 392.7987,715.07647 C 395.28747,715.07647 401.04462,716.87063 404.74389,718.79907 C 407.46487,720.21753 411.05051,720.96439 425.92857,723.21165 C 434.44471,724.49798 462.0358,723.65977 467.22526,721.95708 C 469.26208,721.28878 472.95357,719.87673 475.42857,718.81918 C 482.93679,715.61096 483.74787,715.29326 488.92857,713.53122 C 491.67857,712.5959 495.83617,710.98595 498.16767,709.95356 C 500.49918,708.92116 502.78324,708.07647 503.24336,708.07647 C 503.70348,708.07647 505.17088,706.90768 506.50426,705.47915 C 507.83763,704.05063 510.60228,702.02352 512.64792,700.97446 C 516.64746,698.92341 517.44383,698.28583 527.6135,688.99299 C 534.82306,682.40503 543.95936,671.01682 547.20187,664.57647 C 548.30951,662.37647 550.16364,659.71923 551.32216,658.67148 C 552.48069,657.62374 553.42857,656.29836 553.42857,655.7262 C 553.42857,655.15404 554.48939,653.53628 555.78596,652.13119 C 557.08252,650.72609 559.02916,647.77647 560.11182,645.57647 C 566.52278,632.54918 571.00266,624.19034 573.07274,621.39319 C 574.36844,619.64239 575.42857,617.53942 575.42857,616.71992 C 575.42857,615.90042 576.47588,613.95789 577.75592,612.4032 C 580.58992,608.96109 588.01602,587.73634 589.98269,577.45746 C 590.77064,573.33921 591.89529,569.07291 592.48191,567.9768 C 594.33297,564.51806 596.99262,546.85975 598.26565,529.57647 C 598.63026,524.62647 599.31915,519.97106 599.79652,519.23112 C 600.30371,518.44496 600.23293,516.99019 599.62624,515.73112 C 596.20534,508.63169 593.42857,501.59017 593.42857,500.01464 C 593.42857,499.01357 592.97857,497.91639 592.42857,497.57647 C 590.87999,496.61939 591.24874,493.08271 592.96582,492.4238 C 594.8997,491.6817 598.42857,494.78296 598.42857,497.2246 C 598.42857,500.15844 601.77618,507.07647 603.19585,507.07647 C 603.90837,507.07647 604.74302,507.86397 605.05063,508.82647 C 606.86955,514.51779 610.74335,520.07647 612.89066,520.07647 C 613.50306,520.07647 615.52771,521.34842 617.38989,522.90303 C 619.71868,524.8472 620.57518,526.25201 620.1335,527.40303 C 619.25366,529.69585 615.12993,529.50894 612.92857,527.07647 C 611.93308,525.97647 610.66127,525.07647 610.10232,525.07647 C 609.54337,525.07647 608.25249,524.3221 607.23368,523.4001 C 604.4496,520.88054 603.66818,522.59315 603.04673,532.57647 C 601.95964,550.03992 599.65041,565.03485 597.1177,571.07647 C 596.31072,573.00147 595.32855,576.97364 594.93509,579.90351 C 593.87656,587.78576 585.83607,610.80347 582.93815,614.24745 C 581.55788,615.88781 580.42857,618.03471 580.42857,619.01834 C 580.42857,620.00197 579.42487,622.08275 578.19813,623.6423 C 576.97139,625.20185 574.93851,628.52504 573.68063,631.02716 C 572.42274,633.52928 570.74569,636.70147 569.95383,638.07647 C 569.16198,639.45147 567.37109,643.21566 565.97407,646.44134 C 564.57705,649.66702 562.19531,653.79245 560.6813,655.60895 C 555.8912,661.35613 551.42857,667.73384 551.42857,668.83237 C 551.42857,670.37987 541.93935,682.42454 534.42857,690.41048 C 528.35106,696.87247 524.93787,699.64121 516.9653,704.57647 C 515.18832,705.67647 512.20048,707.92647 510.32565,709.57647 C 507.11876,712.39878 502.7702,714.36226 485.92857,720.59228 C 482.07857,722.01647 478.25357,723.6109 477.42857,724.13545 C 476.60357,724.66001 475.47857,725.24311 474.92857,725.43122 C 474.37857,725.61933 472.35357,726.32054 470.42857,726.98945 C 466.14514,728.47789 428.11074,729.31294 420.92857,728.07623 z M 655.67857,541.5856 C 652.12119,540.03942 651.26104,537.07647 654.36955,537.07647 C 655.43709,537.07647 656.58865,537.52647 656.92857,538.07647 C 657.67728,539.28791 664.42857,539.42564 664.42857,538.22948 C 664.42857,537.76364 665.32857,536.34478 666.42857,535.07647 C 667.52857,533.80816 668.42857,531.9768 668.42857,531.00679 C 668.42857,530.03678 668.99107,529.05473 669.67857,528.82445 C 671.29051,528.28453 671.17646,511.42436 669.54985,509.79775 C 668.93315,509.18105 668.42857,507.93532 668.42857,507.02948 C 668.42857,506.12364 667.48995,504.30114 666.34274,502.97948 C 664.60042,500.97222 663.41143,500.60266 659.12307,500.73549 C 656.29945,500.82295 653.82558,501.38545 653.62556,501.98549 C 653.42555,502.58553 652.72441,503.07647 652.06748,503.07647 C 651.41054,503.07647 650.10245,503.97647 649.1606,505.07647 C 647.15012,507.42454 644.42857,507.71868 644.42857,505.5879 C 644.42857,503.70828 647.48542,500.07647 649.06748,500.07647 C 649.72441,500.07647 650.44159,499.53741 650.66121,498.87856 C 650.92554,498.08557 653.79686,497.66305 659.15577,497.62856 C 666.49123,497.58136 667.44708,497.80201 669.3398,499.97948 C 670.48862,501.30114 671.42857,503.12364 671.42857,504.02948 C 671.42857,504.93532 671.88515,506.13305 672.44318,506.69108 C 673.00122,507.24912 673.74205,512.03303 674.08947,517.32199 L 674.72114,526.93829 L 670.98405,534.40054 C 667.81598,540.72657 666.78496,541.95519 664.21276,542.46963 C 660.11395,543.28939 659.4373,543.2193 655.67857,541.5856 z M 208.85501,530.11058 C 207.71455,529.64906 204.71743,527.20743 202.19473,524.68473 C 198.80541,521.29541 197.42654,519.02392 196.91289,515.98363 C 196.07964,511.05168 197.20956,499.07647 198.50817,499.07647 C 199.01439,499.07647 199.42857,498.48262 199.42857,497.75681 C 199.42857,497.03099 200.557,495.45599 201.93618,494.25681 C 204.06319,492.40739 205.65683,492.07647 212.43618,492.07647 C 216.83199,492.07647 220.42857,492.47399 220.42857,492.95984 C 220.42857,493.44569 221.32857,494.07856 222.42857,494.36622 C 224.92212,495.0183 225.07965,498.07647 222.6197,498.07647 C 221.62482,498.07647 219.93732,497.41578 218.8697,496.60827 C 217.79117,495.79251 214.73823,495.12594 211.99957,495.10827 C 207.63183,495.08009 206.70832,495.47197 203.88916,498.54977 C 200.46778,502.28505 198.95714,508.46929 200.0866,514.11662 C 200.76362,517.50172 208.34397,525.71361 212.11531,527.14747 C 213.40898,527.63932 217.15869,527.76045 220.448,527.41665 C 225.3935,526.89974 226.42857,527.05317 226.42857,528.30317 C 226.42857,530.7506 213.67731,532.06205 208.85501,530.11058 z M 459.92857,430.18229 C 455.8859,428.42422 453.92857,425.10064 453.92857,419.99421 C 453.92857,416.00264 454.42977,414.62072 456.7013,412.3492 C 458.98542,410.06507 460.3471,409.57647 464.42857,409.57647 C 468.51004,409.57647 469.87172,410.06507 472.15584,412.3492 C 474.43997,414.63332 474.92857,415.995 474.92857,420.07647 C 474.92857,424.07754 474.42871,425.53088 472.33115,427.62843 C 469.5275,430.43209 463.40294,431.69321 459.92857,430.18229 z M 424.92857,419.18229 C 420.8859,417.42422 418.92857,414.10064 418.92857,408.99421 C 418.92857,405.00264 419.42977,403.62072 421.7013,401.3492 C 423.98542,399.06507 425.3471,398.57647 429.42857,398.57647 C 433.51004,398.57647 434.87172,399.06507 437.15584,401.3492 C 439.43997,403.63332 439.92857,404.995 439.92857,409.07647 C 439.92857,413.07754 439.42871,414.53088 437.33115,416.62843 C 434.5275,419.43209 428.40294,420.69321 424.92857,419.18229 z M 426.59983,306.42148 C 427.60564,305.51124 428.42857,304.08417 428.42857,303.25022 C 428.42857,300.70807 425.28191,298.07647 422.2422,298.07647 C 418.53569,298.07647 417.58292,295.62395 420.18287,292.77559 C 421.2869,291.56607 422.48435,288.51938 422.84386,286.00516 C 423.38222,282.24022 423.12584,280.96133 421.39047,278.75516 C 420.23159,277.28188 418.50607,276.07647 417.55599,276.07647 C 416.60591,276.07647 415.40054,275.64844 414.8774,275.1253 C 414.35426,274.60216 410.55653,274.03966 406.43801,273.8753 C 397.8796,273.53376 396.57953,272.0687 400.33154,266.99385 C 402.59563,263.93149 403.10582,257.98798 401.4732,253.69387 C 400.13891,250.18439 396.74997,248.24313 389.8509,247.03634 C 384.47111,246.0953 381.7808,245.24464 377.42857,243.10845 C 374.15447,241.50144 375.31143,238.44646 381.88162,231.35005 C 389.2976,223.3401 389.82461,221.2482 385.96634,215.13629 C 383.33979,210.97558 377.62003,206.07647 375.3889,206.07647 C 374.64591,206.07647 372.85888,204.94679 371.41772,203.56608 L 368.79744,201.05569 L 366.10595,205.16661 L 363.41445,209.27752 L 366.1114,211.427 C 367.59472,212.60921 369.5104,214.12466 370.36846,214.79467 C 371.22652,215.46467 372.72572,216.02717 373.70001,216.04467 C 374.6743,216.06216 375.97759,217.18733 376.59621,218.54506 C 377.59192,220.73039 377.28395,221.56227 373.91219,225.79506 C 371.81736,228.42483 368.16181,232.60653 365.78874,235.08772 C 360.12811,241.00626 359.2499,245.00416 362.96796,247.9288 C 364.46964,249.11002 366.31871,250.07647 367.077,250.07647 C 367.83529,250.07647 369.2371,250.47397 370.19214,250.9598 C 371.14718,251.44563 373.27857,252.39813 374.92857,253.07647 C 376.57857,253.75481 378.62153,254.65208 379.46847,255.07041 C 380.31542,255.48874 383.38494,256.15786 386.28962,256.55736 C 389.44361,256.99114 391.79516,257.86822 392.12771,258.73483 C 392.80434,260.49809 389.76052,266.40289 386.67857,269.3058 C 384.81106,271.06482 384.42857,272.48811 384.42857,277.6782 C 384.42857,283.24246 384.71883,284.15963 387.06343,286.00389 C 390.32002,288.56553 391.02902,288.57116 396.19243,286.07647 C 401.34826,283.58545 410.2025,283.32376 411.08985,285.63617 C 411.44779,286.56894 410.63126,288.29924 409.05847,289.94089 C 407.61202,291.45065 406.42857,293.35878 406.42857,294.18119 C 406.42857,295.00359 405.92152,296.18352 405.30179,296.80325 C 403.85598,298.24906 404.80961,302.01987 407.47942,305.41399 C 409.41916,307.87996 410.13456,308.07647 417.17241,308.07647 C 422.83974,308.07647 425.2359,307.65582 426.59983,306.42148 z M 481.49019,302.22765 C 482.74595,301.2108 484.95171,297.2733 486.39188,293.47765 L 489.01038,286.57647 L 493.68901,286.27292 C 497.31614,286.0376 498.82399,285.38924 500.39811,283.38806 C 501.51486,281.96834 502.42857,280.03718 502.42857,279.0966 C 502.42857,276.67827 505.40689,274.30182 508.92857,273.91013 L 511.92857,273.57647 L 512.22258,265.71812 C 512.45341,259.54855 512.1402,257.29207 510.76511,255.21812 L 509.01361,252.57647 L 508.25503,256.93311 C 507.27337,262.57092 505.92949,264.07647 501.87871,264.07647 C 498.42285,264.07647 494.42857,267.72547 494.42857,270.88259 C 494.42857,273.11653 491.43034,276.07647 489.16749,276.07647 C 485.49899,276.07647 479.80187,281.67152 478.4106,286.64064 C 477.70029,289.17765 476.06374,292.80856 474.77384,294.70934 C 471.98845,298.81385 471.89541,299.82986 474.08356,302.24773 C 476.19052,304.57589 478.5983,304.56937 481.49019,302.22765 z M 453.02493,290.56654 C 459.97587,286.95197 463.93079,283.47614 464.25345,280.6982 C 464.67549,277.06466 460.58859,269.04635 454.62291,261.80353 C 446.61039,252.07568 445.25253,250.10458 445.68009,248.82191 C 445.9078,248.13879 448.2984,246.43844 450.99254,245.04335 C 453.68668,243.64825 456.56221,241.31093 457.3826,239.8493 C 458.75133,237.41074 458.68159,236.75448 456.53609,231.88413 C 453.3432,224.63612 453.32117,222.65936 456.42857,222.23529 C 459.42757,221.82602 462.42857,219.34048 462.42857,217.26587 C 462.42857,215.4054 457.69749,209.07647 456.30673,209.07647 C 454.59046,209.07647 444.45464,199.67548 444.44119,198.07116 C 444.43425,197.24324 442.96607,196.07225 441.17857,195.46895 C 439.39107,194.86566 437.20605,194.05734 436.32297,193.67268 C 435.05942,193.1223 434.4421,193.9565 433.4252,197.58849 C 432.25724,201.76006 432.31545,202.44525 434.0308,204.71703 C 435.69663,206.92322 438.31115,208.696 443.36174,211.04389 C 445.97913,212.26064 447.03711,214.90983 445.67107,216.82647 C 444.98507,217.78897 443.93094,219.70147 443.32857,221.07647 C 442.22945,223.58536 442.30576,223.94375 445.70016,232.21516 C 446.71223,234.68135 446.37918,235.22774 440.60579,240.57288 C 432.8161,247.78476 432.38446,250.86072 438.25164,257.34881 C 452.34595,272.9347 455.04368,278.13171 450.02948,280.0381 C 447.38797,281.04241 444.42857,284.70519 444.42857,286.97024 C 444.42857,288.77955 447.33493,292.07647 448.92992,292.07647 C 449.58518,292.07647 451.42793,291.397 453.02493,290.56654 z M 533.19214,291.17885 C 542.69784,286.26502 552.32426,282.06146 554.05613,282.0682 C 555.22628,282.07275 556.75077,281.39317 557.44389,280.55802 C 558.137,279.72287 560.3296,278.28924 562.31633,277.37219 C 564.30306,276.45513 567.00176,274.88843 568.31343,273.89064 C 569.6251,272.89285 571.69346,272.07647 572.90979,272.07647 C 578.49446,272.07647 586.42857,266.1596 586.42857,261.99483 C 586.42857,258.65825 577.4617,250.07647 573.9754,250.07647 C 572.74513,250.07647 570.92406,249.17647 569.92857,248.07647 C 568.93308,246.97647 567.28223,246.07647 566.26001,246.07647 C 565.23779,246.07647 563.62004,245.69673 562.665,245.2326 C 558.89363,243.39978 554.10686,240.97814 549.67857,238.66272 L 546.42857,236.9634 L 546.41326,241.26993 C 546.40484,243.63853 545.98965,246.22169 545.49063,247.01029 C 544.82916,248.05561 545.27072,248.80074 547.12025,249.76029 C 548.51556,250.48419 550.39325,251.10303 551.29288,251.1355 C 554.27142,251.24298 561.89834,255.56172 562.23967,257.3341 C 562.69136,259.67952 560.91524,259.52815 554.94292,256.71221 C 545.5632,252.28969 542.85857,251.75878 539.71956,253.7239 C 538.18451,254.68489 536.81526,255.53315 536.67678,255.60893 C 536.5383,255.68471 537.09593,257.95841 537.91596,260.66159 C 539.80328,266.88304 539.81385,269.07647 537.9565,269.07647 C 537.03266,269.07647 535.88899,267.0282 534.88555,263.57647 C 534.00616,260.55147 532.93366,258.07647 532.50222,258.07647 C 531.60241,258.07647 530.44616,268.84704 530.43568,277.32647 C 530.42992,281.98544 530.11749,283.07647 528.78909,283.07647 C 527.33615,283.07647 527.2069,281.7782 527.65313,271.66635 L 528.15666,260.25623 L 524.04261,259.83645 C 521.77989,259.60557 519.14107,259.06697 518.17857,258.63958 C 516.57095,257.92572 516.42857,258.75622 516.42857,268.84736 C 516.42857,280.49257 517.68065,285.47677 521.69873,289.82647 C 523.90666,292.21661 529.83515,292.91419 533.19214,291.17885 z M 515.17688,286.82647 C 514.92077,286.13897 514.10722,283.88897 513.36901,281.82647 C 512.36043,279.00861 511.46997,278.07647 509.7867,278.07647 C 507.29566,278.07647 506.97874,278.42874 506.08053,282.19599 C 505.52928,284.50799 505.89458,284.9955 509.19227,286.34881 C 513.89065,288.27693 515.7732,288.42719 515.17688,286.82647 z M 482.5769,274.17443 C 483.90683,273.12831 486.07472,272.11581 487.39444,271.92443 C 489.05813,271.68317 490.02999,270.68851 490.56373,268.68079 C 491.76277,264.17044 496.25213,260.07647 499.99903,260.07647 C 502.46836,260.07647 503.33245,259.56474 503.79828,257.82647 C 504.86308,253.85321 504.47167,248.22467 502.84848,244.16791 L 501.26839,240.21888 L 493.09848,239.72391 C 475.96824,238.68608 472.52023,237.84418 468.80736,233.79274 C 464.22158,228.78878 464.30725,225.32339 469.14926,219.96387 C 471.19564,217.69877 475.43346,214.17978 478.56662,212.14389 L 484.26329,208.44227 L 480.66709,206.50937 C 478.68919,205.44627 475.96911,203.71127 474.62248,202.6538 C 469.67864,198.77153 465.20596,197.08843 461.43529,197.69139 C 459.43545,198.01117 456.25332,197.84975 454.36389,197.33266 C 452.47447,196.81557 450.40333,196.57147 449.76137,196.79022 C 448.4849,197.22517 456.4924,205.07647 458.21248,205.07647 C 458.79561,205.07647 460.88279,206.95747 462.85065,209.25647 C 467.78693,215.02341 467.82034,219.6473 462.95656,223.91775 C 459.51388,226.94046 459.49699,226.99597 460.95656,230.48922 C 463.35332,236.22548 462.85449,240.52178 459.32498,244.54167 C 457.618,246.48581 455.6481,248.07647 454.94742,248.07647 C 454.24674,248.07647 453.21978,248.63897 452.66527,249.32647 C 451.54791,250.71183 453.36245,253.83023 459.59017,261.22733 C 461.60405,263.61936 464.30891,267.59789 465.60096,270.06852 C 467.35817,273.4286 468.70342,274.72175 470.93936,275.2002 C 476.53771,276.39815 480.15527,276.07929 482.5769,274.17443 z M 443.42857,270.94578 C 443.42857,270.3239 440.50357,266.47462 436.92857,262.39181 C 430.725,255.30706 430.42857,254.73289 430.42857,249.8015 C 430.42857,244.86849 430.68184,244.37852 436.0205,238.98357 L 441.61242,233.33268 L 440.0205,230.25424 C 438.02658,226.39843 437.99265,221.43594 439.93473,217.71216 C 441.82329,214.09101 441.82134,214.07647 439.44613,214.07647 C 438.35579,214.07647 435.36519,212.06575 432.80036,209.60821 L 428.13702,205.13995 L 428.75582,199.21961 L 429.37462,193.29926 L 426.07679,194.04304 C 424.26298,194.45212 420.74808,195.97699 418.2659,197.43165 C 414.78192,199.4734 412.42269,200.07647 407.9193,200.07647 C 402.32723,200.07647 401.91055,199.89364 397.85396,195.65995 C 393.95794,191.59383 393.35665,191.30579 390.27538,192.02954 C 385.57683,193.13315 373.42857,198.14717 373.42857,198.98281 C 373.42857,200.24834 375.8041,202.07647 377.44857,202.07647 C 379.72416,202.07647 387.12117,208.62926 390.0083,213.20276 C 391.67054,215.83592 392.42857,218.49075 392.42857,221.67917 C 392.42857,225.97966 391.98166,226.79935 386.36112,232.80773 L 380.29367,239.29385 L 382.77939,240.58345 C 384.14653,241.29273 387.21438,242.17528 389.59684,242.54466 C 396.81476,243.66375 399.96146,244.97948 402.99661,248.14749 C 405.56546,250.82879 405.93755,252.02396 406.27327,258.67219 C 406.5826,264.79775 406.32825,266.52984 404.8853,268.12429 C 403.14999,270.04178 403.23579,270.07647 409.71457,270.07647 C 413.34235,270.07647 416.58865,270.52647 416.92857,271.07647 C 417.82868,272.53287 443.42857,272.40662 443.42857,270.94578 z M 532.94823,252.97847 C 543.92274,246.78484 545.08024,241.80213 537.79568,232.11154 C 531.28227,223.44678 529.97533,222.75584 521.72503,223.61551 C 513.38881,224.48414 512.14367,225.10662 508.39719,230.27849 C 504.47153,235.6977 504.43625,240.42019 508.28217,245.67643 C 511.94234,250.67881 514.10211,252.53639 518.42857,254.40315 C 523.73033,256.69074 526.92606,256.37717 532.94823,252.97847 z M 344.15459,244.82647 C 346.29077,242.50974 347.10657,238.43591 348.05955,225.32647 L 348.58658,218.07647 L 344.95791,218.07647 C 342.96215,218.07647 340.03252,217.40591 338.44764,216.58633 L 335.56602,215.09619 L 332.87994,220.58633 C 330.23872,225.98481 327.42857,227.86073 327.42857,224.22541 C 327.42857,223.20733 328.57141,220.22497 329.96821,217.59795 C 332.36698,213.08647 332.41385,212.71769 330.81322,210.94901 C 328.5355,208.43216 325.54899,208.59109 319.02228,211.57647 C 316.01623,212.95147 312.80574,214.07647 311.88787,214.07647 C 310.97001,214.07647 307.9792,215.20147 305.24164,216.57647 C 299.27433,219.57368 298.42857,219.64989 298.42857,217.19041 C 298.42857,215.03597 302.71741,212.6977 309.47431,211.16827 C 311.92415,210.61374 315.81933,209.24124 318.13026,208.11826 C 320.4412,206.99527 323.3662,206.07668 324.63026,206.07693 C 326.77259,206.07736 326.92857,205.67035 326.92857,200.07973 C 326.92857,193.88141 326.29068,193.1154 322.665,194.9598 C 321.10512,195.75332 318.95123,196.67877 314.42857,198.49873 C 313.60357,198.83071 311.01066,200.18695 308.66654,201.51259 C 306.32243,202.83823 303.07879,204.21402 301.45846,204.56991 C 297.6665,205.40276 292.42857,211.33504 292.42857,214.79682 C 292.42857,217.923 295.98269,222.07647 298.65775,222.07647 C 300.81938,222.07647 310.87598,228.63724 317.31936,234.25101 C 319.73429,236.35501 322.22629,238.07647 322.85713,238.07647 C 323.48798,238.07647 325.56212,239.40818 327.46634,241.03583 C 329.37057,242.66348 331.43597,244.01348 332.05613,244.03583 C 332.67628,244.05818 333.74388,244.75147 334.42857,245.57647 C 336.33012,247.8677 341.73466,247.45094 344.15459,244.82647 z M 502.53434,232.23014 L 504.14011,228.40415 L 500.03434,225.92988 C 497.77617,224.56902 494.69107,222.84425 493.17857,222.09706 C 489.99618,220.5249 489.51784,218.07647 492.39309,218.07647 C 494.52092,218.07647 503.71761,222.84326 504.2619,224.22827 C 504.77643,225.53753 506.59453,225.23625 508.48088,223.52913 C 509.87524,222.26725 510.09511,220.7914 509.67271,215.52913 C 509.22963,210.00928 509.39139,209.07647 510.79166,209.07647 C 511.84806,209.07647 512.42857,209.91874 512.42857,211.45147 C 512.42857,212.75772 512.70982,215.23272 513.05357,216.95147 C 513.72357,220.30147 515.54099,220.80399 522.18263,219.47566 C 525.0524,218.9017 525.24006,218.54406 526.38032,211.47566 C 527.26518,205.99044 527.97295,204.07647 529.11647,204.07647 C 530.4059,204.07647 530.54832,205.01998 529.98438,209.82647 C 529.61333,212.98897 529.1,216.30462 528.84363,217.19458 C 528.52967,218.28447 529.37177,219.22451 531.42329,220.07428 C 533.09847,220.76816 535.53803,222.60627 536.84453,224.15897 C 539.1887,226.94485 539.22778,226.95303 539.81063,224.77926 C 540.13548,223.56773 540.40741,220.80356 540.41492,218.63667 C 540.43394,213.14786 542.38144,203.09646 544.04093,199.92218 C 547.28511,193.71667 543.98992,188.07647 537.12028,188.07647 C 532.9294,188.07647 525.57217,189.85036 523.97857,191.24505 C 523.45607,191.70233 522.27367,192.07647 521.35101,192.07647 C 520.42836,192.07647 519.12314,192.73956 518.45053,193.55001 C 517.77792,194.36045 515.69285,195.31147 513.81704,195.66337 C 511.94123,196.01527 510.15989,196.70218 509.85851,197.18983 C 509.55712,197.67748 508.50684,198.07647 507.52454,198.07647 C 506.54224,198.07647 504.92406,198.97647 503.92857,200.07647 C 502.93308,201.17647 501.58308,202.07647 500.92857,202.07647 C 500.27406,202.07647 498.8813,203.02811 497.83356,204.19123 C 496.78581,205.35435 495.02857,206.71103 493.92857,207.20608 C 492.82857,207.70113 490.57857,208.9928 488.92857,210.07647 C 487.27857,211.16014 485.01008,212.45658 483.88747,212.95745 C 482.76487,213.45832 481.24727,214.59 480.51503,215.47229 C 479.78279,216.35459 478.69525,217.07647 478.09829,217.07647 C 477.50132,217.07647 475.30642,218.7428 473.22073,220.77942 C 468.84663,225.05062 468.36559,228.31608 471.60288,231.76202 C 473.34187,233.61309 474.83165,234.07647 479.04387,234.07647 C 481.94053,234.07647 484.58865,234.52647 484.92857,235.07647 C 485.26849,235.62647 489.00755,236.07189 493.23759,236.0663 L 500.92857,236.05613 L 502.53434,232.23014 z M 553.79983,232.07647 C 557.06309,232.07647 560.42857,229.62613 560.42857,227.25022 C 560.42857,224.12048 557.28347,222.07528 552.52358,222.10974 C 547.24901,222.14793 544.10794,224.23349 543.0647,228.39013 C 542.45207,230.83101 542.75036,231.30983 545.65038,232.54073 C 547.67141,233.39855 549.29289,233.57633 549.87857,233.00431 C 550.40107,232.494 552.16564,232.07647 553.79983,232.07647 z M 351.21841,212.1822 C 353.259,211.14035 357.06607,208.2964 359.67857,205.86231 C 364.33336,201.52541 364.42857,201.31552 364.42857,195.39144 C 364.42857,188.05054 362.58235,185.2635 355.29485,181.6032 C 347.51881,177.69751 344.92648,178.13501 339.15838,184.32647 C 328.18768,196.10239 327.73566,203.94 337.61448,211.09619 C 342.39134,214.55652 346.00325,214.84487 351.21841,212.1822 z M 490.77381,202.01955 C 492.21203,200.88824 494.11055,198.30074 494.99273,196.26955 C 495.87492,194.23836 497.00887,191.79508 497.51264,190.84004 C 498.0164,189.885 498.42857,188.28585 498.42857,187.28638 C 498.42857,185.3305 502.94379,175.53931 504.98148,173.07647 C 505.66407,172.25147 506.50598,169.32647 506.8524,166.57647 C 508.726,151.70328 508.77636,152.64325 505.92424,149.25369 C 503.53456,146.41372 502.70295,146.08422 498.08968,146.14955 C 494.85332,146.19538 491.80977,146.92937 489.92857,148.1177 C 485.06344,151.19092 480.24815,153.14322 475.10123,154.12924 C 468.40141,155.41275 468.02036,155.8621 471.29506,158.61758 C 472.87581,159.9477 474.73212,162.39508 475.42018,164.05622 C 476.84041,167.48495 477.00345,167.53444 480.42857,165.57647 C 483.71108,163.70002 486.42857,163.7019 486.42857,165.58063 C 486.42857,166.42859 484.23934,168.04071 481.41035,169.27597 C 478.65033,170.48112 476.52703,171.87184 476.6919,172.36645 C 476.85677,172.86107 481.13997,174.59415 486.21012,176.21775 C 492.25205,178.15254 495.42857,179.67055 495.42857,180.62311 C 495.42857,182.62783 493.71264,182.46222 484.71667,179.58923 C 475.6062,176.67968 474.42857,176.56376 474.42857,178.57647 C 474.42857,179.40147 475.12278,180.07647 475.97127,180.07647 C 478.22394,180.07647 488.42857,187.88441 488.42857,189.60801 C 488.42857,192.09145 485.58508,191.25518 479.99987,187.12914 C 474.62947,183.16179 473.42857,182.97437 473.42857,186.10359 C 473.42857,187.03517 472.34197,189.39857 471.0139,191.35559 C 468.49747,195.06375 468.59592,196.07647 471.47279,196.07647 C 472.41378,196.07647 473.79339,196.81112 474.53859,197.70903 C 476.90181,200.55654 482.83318,203.95665 485.54371,204.01764 C 486.98204,204.04999 489.33558,203.15086 490.77381,202.01955 z M 323.3732,188.86028 C 322.30365,188.46463 321.42857,187.50482 321.42857,186.72738 C 321.42857,185.25665 327.55101,180.07647 329.28927,180.07647 C 330.68634,180.07647 334.42857,175.12053 334.42857,173.27035 C 334.42857,171.2579 331.51224,168.07647 329.66749,168.07647 C 328.00671,168.07647 322.87267,171.92588 313.17857,180.43957 C 307.63869,185.30489 306.42857,186.91008 306.42857,189.39332 C 306.42857,191.05744 307.1267,193.19042 307.97997,194.13327 C 309.4376,195.74393 310.00849,195.65812 317.4246,192.7136 C 323.56757,190.27457 324.88662,189.42013 323.3732,188.86028 z M 371.19214,195.2326 C 372.14718,194.76847 373.93496,193.86847 375.165,193.2326 C 376.39504,192.59673 377.87928,192.07647 378.46331,192.07647 C 379.04734,192.07647 381.38797,191.17647 383.66471,190.07647 C 385.94144,188.97647 388.7032,188.07647 389.80195,188.07647 C 393.4511,188.07647 396.42857,184.18022 396.42857,179.40503 C 396.42857,174.08932 393.69252,170.80189 378.32322,157.65102 C 367.19502,148.12908 360.80245,144.07647 356.91079,144.07647 C 354.04243,144.07647 348.42857,148.6358 348.42857,150.96536 C 348.42857,151.90647 348.05443,153.10397 347.59715,153.62647 C 346.18819,155.23637 344.42857,162.59507 344.42857,166.87739 C 344.42857,169.11527 344.03248,171.98806 343.54837,173.26137 C 342.69987,175.4931 342.85292,175.57752 347.79837,175.60559 C 350.61998,175.6216 353.71607,176.00725 354.67857,176.46258 C 356.1291,177.14878 356.43045,176.80154 356.43958,174.43345 C 356.46172,168.68463 357.67253,164.07647 359.1609,164.07647 C 360.3808,164.07647 360.5127,165.25993 359.93451,171.01735 C 359.55113,174.83483 359.53902,178.44616 359.9076,179.04253 C 360.33067,179.72708 362.96428,178.45851 367.05106,175.60165 C 370.61139,173.1128 374.21083,171.07647 375.0498,171.07647 C 378.15604,171.07647 375.77777,174.62128 370.19134,178.31802 L 364.47337,182.10179 L 366.44723,185.33913 C 367.53286,187.11967 368.42278,190.26397 368.42483,192.32647 C 368.42886,196.36699 368.56459,196.50954 371.19214,195.2326 z M 416.55081,194.32647 C 420.63711,191.33686 423.31668,190.07647 425.58626,190.07647 C 429.92602,190.07647 431.13514,187.74019 430.0006,181.54698 C 429.09417,176.59896 428.7462,176.03179 426.95295,176.57947 C 423.80403,177.54118 414.01476,180.00113 413.17857,180.04084 C 412.76607,180.06044 412.42857,179.21602 412.42857,178.16436 C 412.42857,176.69245 413.40698,176.08943 416.67857,175.54493 C 419.01607,175.1559 423.29107,173.95901 426.17857,172.88518 C 430.52344,171.26938 431.42857,170.51645 431.42857,168.51804 C 431.42857,166.68806 430.55144,165.73682 427.80645,164.58989 C 425.81428,163.7575 423.15108,163.07647 421.88823,163.07647 C 418.50686,163.07647 416.42857,162.05669 416.42857,160.39752 C 416.42857,159.20071 417.4613,159.06158 422.07055,159.63747 C 425.17364,160.02518 428.76872,160.89035 430.05963,161.56008 C 432.16816,162.654 432.79462,162.41177 436.22252,159.17712 L 440.0383,155.57647 L 436.48344,152.69864 C 434.52826,151.11584 431.49684,149.21016 429.74695,148.4638 C 427.99706,147.71743 426.31339,146.69911 426.00545,146.20087 C 424.98389,144.54794 415.50582,140.07647 413.0237,140.07647 C 411.68078,140.07647 409.19749,141.24147 407.5053,142.66536 C 404.92872,144.8334 404.42857,145.96899 404.42857,149.65101 C 404.42857,153.97095 402.94692,161.63767 401.35085,165.57647 C 400.90511,166.67647 400.29233,170.72647 399.98911,174.57647 C 399.68589,178.42647 399.16283,183.74648 398.82675,186.39871 C 398.30312,190.53102 398.54201,191.56832 400.49644,193.64872 C 402.39296,195.66746 403.73594,196.07647 408.46803,196.07647 C 412.30997,196.07647 414.93597,195.50792 416.55081,194.32647 z M 465.93885,190.76619 C 468.47477,188.23026 469.39335,186.3004 469.86569,182.51619 C 470.20481,179.79934 470.92018,176.19452 471.45542,174.50547 C 473.21104,168.9652 472.63703,166.08493 469.0655,162.51339 L 465.70242,159.15032 L 453.8155,159.26646 L 441.92857,159.38259 L 438.67857,162.62953 C 436.70849,164.59776 435.42857,166.88187 435.42857,168.42941 C 435.42857,169.83353 434.92224,172.09363 434.30339,173.45185 C 432.3835,177.66555 434.10324,184.95114 437.91829,188.76619 C 440.70821,191.55611 441.99096,192.09214 446.07857,192.17615 C 448.74607,192.23097 452.05357,192.63612 453.42857,193.07647 C 458.99091,194.85784 462.49414,194.2109 465.93885,190.76619 z M 335.48494,182.85361 C 337.10394,181.08103 338.42857,179.04037 338.42857,178.31881 C 338.42857,177.59724 337.03195,178.59753 335.32498,180.54167 C 333.618,182.48581 331.61956,184.07647 330.88399,184.07647 C 330.14843,184.07647 329.26849,184.52647 328.92857,185.07647 C 327.3774,187.58631 332.86006,185.72748 335.48494,182.85361 z M 447.70899,144.17397 C 449.78822,143.02034 452.57954,142.07647 453.91193,142.07647 C 455.24433,142.07647 457.59314,141.53945 459.13152,140.88311 C 465.52602,138.15489 467.04916,134.85306 463.42583,131.57399 C 461.68968,130.00279 460.90884,129.91561 457.55981,130.919 C 455.43501,131.55561 452.73013,132.07647 451.54898,132.07647 C 449.59847,132.07647 447.74395,132.79764 443.42857,135.23428 C 442.60357,135.70011 441.02857,136.48488 439.92857,136.97821 C 437.26524,138.17268 431.90782,143.88905 432.70477,144.686 C 433.05149,145.03272 434.81869,146.34487 436.63187,147.60188 C 439.82242,149.81377 439.99297,149.82914 441.92857,148.07942 C 443.02857,147.08505 445.62976,145.3276 447.70899,144.17397 z "
         style="fill:black;fill-opacity:1" />
    </g>
  </g>
</svg>
