<?xml version="1.0" encoding="UTF-8" standalone="no"?>
<!-- Created with Inkscape (http://www.inkscape.org/) -->
<svg xmlns:dc="http://purl.org/dc/elements/1.1/" xmlns:cc="http://creativecommons.org/ns#" xmlns:rdf="http://www.w3.org/1999/02/22-rdf-syntax-ns#" xmlns:svg="http://www.w3.org/2000/svg" xmlns="http://www.w3.org/2000/svg" xmlns:xlink="http://www.w3.org/1999/xlink" xmlns:sodipodi="http://sodipodi.sourceforge.net/DTD/sodipodi-0.dtd" xmlns:inkscape="http://www.inkscape.org/namespaces/inkscape" width="394.48569" height="397.34286" id="svg2" sodipodi:version="0.32" inkscape:version="0.46" sodipodi:docname="Save.svg" inkscape:output_extension="org.inkscape.output.svg.inkscape" version="1.0" inkscape:export-filename="C:\Users\Joshua\Documents\Visual Studio 2005\Projects\Flash-cards_share_code\Flash-Cards Wpf\Flash-Cards Wpf\Svg Package\Save.png" inkscape:export-xdpi="22.650465" inkscape:export-ydpi="22.650465">
  <defs id="defs4">
    <linearGradient id="linearGradient3176">
      <stop style="stop-color:#dddddd;stop-opacity:1;" offset="0" id="stop3178"/>
      <stop style="stop-color:#b3b3b3;stop-opacity:1;" offset="1" id="stop3180"/>
    </linearGradient>
    <linearGradient id="linearGradient3168">
      <stop style="stop-color:#ffffff;stop-opacity:1;" offset="0" id="stop3170"/>
      <stop style="stop-color:#ffffff;stop-opacity:1;" offset="1" id="stop3172"/>
    </linearGradient>
    <inkscape:perspective sodipodi:type="inkscape:persp3d" inkscape:vp_x="0 : 526.18109 : 1" inkscape:vp_y="0 : 1000 : 0" inkscape:vp_z="744.09448 : 526.18109 : 1" inkscape:persp3d-origin="372.04724 : 350.78739 : 1" id="perspective10"/>
    <inkscape:perspective id="perspective2390" inkscape:persp3d-origin="372.04724 : 350.78739 : 1" inkscape:vp_z="744.09448 : 526.18109 : 1" inkscape:vp_y="0 : 1000 : 0" inkscape:vp_x="0 : 526.18109 : 1" sodipodi:type="inkscape:persp3d"/>
    <linearGradient inkscape:collect="always" xlink:href="#linearGradient3176" id="linearGradient3182" x1="745.71429" y1="983.50482" x2="745.71429" y2="1155.5052" gradientUnits="userSpaceOnUse" gradientTransform="matrix(1.01136, 0, 0, 0.999599, -94.8968, -79.5709)"/>
    <linearGradient inkscape:collect="always" xlink:href="#linearGradient3176" id="linearGradient3186" gradientUnits="userSpaceOnUse" gradientTransform="matrix(0.767992, 0, 0, 0.733037, -245.56, 308.375)" x1="745.71429" y1="983.50482" x2="745.71429" y2="1155.5052"/>
    <linearGradient inkscape:collect="always" xlink:href="#linearGradient3176" id="linearGradient3260" gradientUnits="userSpaceOnUse" gradientTransform="matrix(1.01136, 0, 0, 0.999599, -94.8968, -79.5709)" x1="745.71429" y1="983.50482" x2="745.71429" y2="1155.5052"/>
    <linearGradient inkscape:collect="always" xlink:href="#linearGradient3176" id="linearGradient3262" gradientUnits="userSpaceOnUse" gradientTransform="matrix(0.767992, 0, 0, 0.733037, -245.56, 308.375)" x1="745.71429" y1="983.50482" x2="745.71429" y2="1155.5052"/>
    <linearGradient inkscape:collect="always" xlink:href="#linearGradient3176" id="linearGradient3279" gradientUnits="userSpaceOnUse" gradientTransform="matrix(1.01136, 0, 0, 0.999599, -94.6442, -78.5607)" x1="745.71429" y1="983.50482" x2="745.71429" y2="1155.5052"/>
    <linearGradient inkscape:collect="always" xlink:href="#linearGradient3176" id="linearGradient2405" gradientUnits="userSpaceOnUse" gradientTransform="matrix(1.01136, 0, 0, 0.999599, -478.413, -660.987)" x1="745.71429" y1="983.50482" x2="745.71429" y2="1155.5052"/>
    <linearGradient inkscape:collect="always" xlink:href="#linearGradient3176" id="linearGradient2415" gradientUnits="userSpaceOnUse" gradientTransform="matrix(0.767992, 0, 0, 0.733037, -274.12, -149.766)" x1="745.71429" y1="983.50482" x2="745.71429" y2="1155.5052"/>
  </defs>
  <sodipodi:namedview id="base" pagecolor="#ffffff" bordercolor="#666666" borderopacity="1.0" gridtolerance="10000" guidetolerance="10" objecttolerance="10" inkscape:pageopacity="0.0" inkscape:pageshadow="2" inkscape:zoom="0.175" inkscape:cx="-998.84691" inkscape:cy="1764.1992" inkscape:document-units="px" inkscape:current-layer="layer1" showgrid="false" inkscape:window-width="1280" inkscape:window-height="914" inkscape:window-x="-8" inkscape:window-y="-8"/>
  <metadata id="metadata7">
    <rdf:RDF>
      <cc:Work rdf:about="">
        <dc:format>image/svg+xml</dc:format>
        <dc:type rdf:resource="http://purl.org/dc/dcmitype/StillImage"/>
      </cc:Work>
    </rdf:RDF>
  </metadata>
  <g inkscape:label="Layer 1" inkscape:groupmode="layer" id="layer1" transform="translate(-89.1972, -310.55)">
    <path style="fill:#999eff;fill-opacity:1;fill-rule:evenodd;stroke:#1532c6;stroke-width:10.19999981;stroke-linecap:butt;stroke-linejoin:miter;stroke-miterlimit:4;stroke-dasharray:none;stroke-opacity:1" d="M 94.297157,315.65006 L 94.297157,661.36434 L 135.72574,702.79291 L 478.58283,702.79291 L 478.58283,317.07863 L 94.297157,315.65006 z" id="path3223"/>
    <rect transform="scale(-1)" rx="0" ry="7.3214283" y="-336.47147" x="-473.2421" height="14.642857" width="373.53265" id="rect3219" style="fill:#eef8f1;fill-opacity:1;fill-rule:evenodd;stroke:none;stroke-width:12.19900036;stroke-miterlimit:4;stroke-dasharray:none;stroke-opacity:1"/>
    <rect style="fill:none;fill-opacity:1;fill-rule:evenodd;stroke:#4c48ff;stroke-width:12.14385796;stroke-miterlimit:4;stroke-dasharray:none;stroke-opacity:1" id="rect3211" width="266.99939" height="156.9994" x="142.01682" y="342.51254" ry="46.387852" rx="0"/>
    <rect style="fill:url(#linearGradient2405);fill-opacity:1;fill-rule:evenodd;stroke:#ffffff;stroke-width:11.83856297;stroke-miterlimit:4;stroke-dasharray:none;stroke-opacity:1" id="rect2396" width="248.73323" height="160.16185" x="151.40244" y="328.00784" ry="47.322243" rx="0"/>
    <rect style="fill:url(#linearGradient2415);fill-opacity:1;fill-rule:evenodd;stroke:none;stroke-width:8.83437061;stroke-miterlimit:4;stroke-dasharray:none;stroke-opacity:1" id="rect3184" width="188.88029" height="117.45175" x="204.14273" y="575.49567" ry="34.702896" rx="0"/>
    <rect style="fill:#395bff;fill-opacity:1;fill-rule:evenodd;stroke:none;stroke-width:12.19900036;stroke-miterlimit:4;stroke-dasharray:none;stroke-opacity:1" id="rect3188" width="54.285713" height="68.571426" x="226.86861" y="594.2215" ry="17.142857" rx="0"/>
    <rect style="fill:#c6c6c6;fill-opacity:1;fill-rule:evenodd;stroke:none;stroke-width:12.19900036;stroke-miterlimit:4;stroke-dasharray:none;stroke-opacity:1" id="rect3190" width="56.428574" height="14.642857" x="225.79716" y="656.7215" ry="7.3214283" rx="0"/>
    <rect style="fill:#c6c6c6;fill-opacity:1;fill-rule:evenodd;stroke:none;stroke-width:12.19900036;stroke-miterlimit:4;stroke-dasharray:none;stroke-opacity:1" id="rect3192" width="117.03773" height="14.642857" x="-693.14655" y="390.42322" ry="7.3214283" rx="0" transform="matrix(0, -1, 1, 0, 0, 0)"/>
    <rect style="fill:#c6c6c6;fill-opacity:1;fill-rule:evenodd;stroke:none;stroke-width:12.19900036;stroke-miterlimit:4;stroke-dasharray:none;stroke-opacity:1" id="rect3194" width="117.03773" height="14.642857" x="-693.12616" y="190.39279" ry="7.3214283" rx="0" transform="matrix(0, -1, 1, 0, 0, 0)"/>
    <rect style="fill:#dedede;fill-opacity:1;fill-rule:evenodd;stroke:none;stroke-width:12.19900036;stroke-miterlimit:4;stroke-dasharray:none;stroke-opacity:1" id="rect3196" width="214.6041" height="14.642857" x="-405.02136" y="-581.29926" ry="7.3214283" rx="0" transform="scale(-1)"/>
    <rect style="fill:none;fill-opacity:1;fill-rule:evenodd;stroke:#161616;stroke-width:13.89740181;stroke-miterlimit:4;stroke-dasharray:none;stroke-opacity:1" id="rect3198" width="227.43301" height="139.77762" x="184.27191" y="559.74451" ry="35.36961" rx="0"/>
  </g>
</svg>