<?xml version="1.0" encoding="UTF-8" standalone="no"?>
<!-- Created with Inkscape (http://www.inkscape.org/) -->
<svg xmlns:dc="http://purl.org/dc/elements/1.1/" xmlns:cc="http://creativecommons.org/ns#" xmlns:rdf="http://www.w3.org/1999/02/22-rdf-syntax-ns#" xmlns:svg="http://www.w3.org/2000/svg" xmlns="http://www.w3.org/2000/svg" xmlns:xlink="http://www.w3.org/1999/xlink" xmlns:sodipodi="http://sodipodi.sourceforge.net/DTD/sodipodi-0.dtd" xmlns:inkscape="http://www.inkscape.org/namespaces/inkscape" width="251.6286" height="78.272728" id="svg2" sodipodi:version="0.32" inkscape:version="0.45.1+0.46pre1+devel" version="1.0" sodipodi:docname="Skiftnyckel.svg" inkscape:output_extension="org.inkscape.output.svg.inkscape" inkscape:export-filename="C:\Documents and Settings\Dan\Skrivbord\Clipart egna (InkScape)\Original\Kanske Upload\Skiftnyckel.png" inkscape:export-xdpi="310" inkscape:export-ydpi="310">
  <defs id="defs4">
    <linearGradient inkscape:collect="always" id="linearGradient3210">
      <stop style="stop-color:#242424;stop-opacity:1;" offset="0" id="stop3212"/>
      <stop style="stop-color:#242424;stop-opacity:0;" offset="1" id="stop3214"/>
    </linearGradient>
    <inkscape:perspective sodipodi:type="inkscape:persp3d" inkscape:vp_x="-50 : 600 : 1" inkscape:vp_y="0 : 1000 : 0" inkscape:vp_z="700 : 600 : 1" inkscape:persp3d-origin="300 : 400 : 1" id="perspective10"/>
    <inkscape:perspective id="perspective2395" inkscape:persp3d-origin="300 : 400 : 1" inkscape:vp_z="700 : 600 : 1" inkscape:vp_y="0 : 1000 : 0" inkscape:vp_x="-50 : 600 : 1" sodipodi:type="inkscape:persp3d"/>
    <linearGradient inkscape:collect="always" xlink:href="#linearGradient3210" id="linearGradient3216" x1="271.20041" y1="422.12646" x2="277.55786" y2="419.3992" gradientUnits="userSpaceOnUse" spreadMethod="reflect"/>
    <filter inkscape:collect="always" id="filter3290" x="-0.037069542" width="1.0741391" y="-0.20464013" height="1.4092803">
      <feGaussianBlur inkscape:collect="always" stdDeviation="0.22229631" id="feGaussianBlur3292"/>
    </filter>
    <filter inkscape:collect="always" id="filter3294" x="-0.036525723" width="1.0730514" y="-0.20464092" height="1.4092818">
      <feGaussianBlur inkscape:collect="always" stdDeviation="0.22229631" id="feGaussianBlur3296"/>
    </filter>
    <filter inkscape:collect="always" id="filter3298" x="-0.035233537" width="1.0704671" y="-0.22296707" height="1.4459341">
      <feGaussianBlur inkscape:collect="always" stdDeviation="0.22229631" id="feGaussianBlur3300"/>
    </filter>
    <filter inkscape:collect="always" id="filter3338" x="-0.082567003" width="1.165134" y="-0.37242028" height="1.7448406">
      <feGaussianBlur inkscape:collect="always" stdDeviation="0.5730291" id="feGaussianBlur3340"/>
    </filter>
    <filter inkscape:collect="always" id="filter3342" x="-0.077577061" width="1.1551541" y="-0.33369564" height="1.6673913">
      <feGaussianBlur inkscape:collect="always" stdDeviation="0.5730291" id="feGaussianBlur3344"/>
    </filter>
    <filter inkscape:collect="always" id="filter3346" x="-0.077111075" width="1.1542221" y="-0.36192074" height="1.7238415">
      <feGaussianBlur inkscape:collect="always" stdDeviation="0.5730291" id="feGaussianBlur3348"/>
    </filter>
    <filter inkscape:collect="always" id="filter3362">
      <feGaussianBlur inkscape:collect="always" stdDeviation="0.42535691" id="feGaussianBlur3364"/>
    </filter>
    <filter inkscape:collect="always" id="filter3506">
      <feGaussianBlur inkscape:collect="always" stdDeviation="0.68393328" id="feGaussianBlur3508"/>
    </filter>
    <filter inkscape:collect="always" id="filter3510" x="-0.39770596" width="1.7954119" y="-0.13014782" height="1.2602956">
      <feGaussianBlur inkscape:collect="always" stdDeviation="0.68393328" id="feGaussianBlur3512"/>
    </filter>
    <filter inkscape:collect="always" id="filter3514" x="-0.56307218" width="2.1261444" y="-0.14398595" height="1.2879719">
      <feGaussianBlur inkscape:collect="always" stdDeviation="0.68393328" id="feGaussianBlur3516"/>
    </filter>
    <filter inkscape:collect="always" id="filter3518" x="-0.81824067" width="2.6364813" y="-0.1892645" height="1.378529">
      <feGaussianBlur inkscape:collect="always" stdDeviation="0.68393328" id="feGaussianBlur3520"/>
    </filter>
    <filter inkscape:collect="always" id="filter3522" x="-0.39770596" width="1.7954119" y="-0.13335185" height="1.2667037">
      <feGaussianBlur inkscape:collect="always" stdDeviation="0.68393328" id="feGaussianBlur3524"/>
    </filter>
    <filter inkscape:collect="always" id="filter3554">
      <feGaussianBlur inkscape:collect="always" stdDeviation="0.72751907" id="feGaussianBlur3556"/>
    </filter>
    <filter inkscape:collect="always" id="filter3570">
      <feGaussianBlur inkscape:collect="always" stdDeviation="0.52052232" id="feGaussianBlur3572"/>
    </filter>
    <filter inkscape:collect="always" id="filter3633" x="-0.19149325" width="1.3829865" y="-0.19889083" height="1.3977817">
      <feGaussianBlur inkscape:collect="always" stdDeviation="1.5367055" id="feGaussianBlur3635"/>
    </filter>
    <filter inkscape:collect="always" id="filter3753" x="-0.020063643" width="1.0401273" y="-0.70992347" height="2.4198469">
      <feGaussianBlur inkscape:collect="always" stdDeviation="0.65434829" id="feGaussianBlur3755"/>
    </filter>
    <filter inkscape:collect="always" id="filter3831" x="-0.090079146" width="1.1801583" y="-0.18872727" height="1.3774545">
      <feGaussianBlur inkscape:collect="always" stdDeviation="0.48120542" id="feGaussianBlur3833"/>
    </filter>
  </defs>
  <sodipodi:namedview id="base" pagecolor="#ffffff" bordercolor="#666666" borderopacity="1.0" gridtolerance="10000" guidetolerance="10" objecttolerance="10" inkscape:pageopacity="0.0" inkscape:pageshadow="2" inkscape:zoom="2.3334524" inkscape:cx="117.53114" inkscape:cy="9.001574" inkscape:document-units="px" inkscape:current-layer="layer2" showgrid="false" inkscape:window-width="1152" inkscape:window-height="838" inkscape:window-x="-4" inkscape:window-y="-4"/>
  <metadata id="metadata7">
    <rdf:RDF>
      <cc:Work rdf:about="">
        <dc:format>image/svg+xml</dc:format>
        <dc:type rdf:resource="http://purl.org/dc/dcmitype/StillImage"/>
      </cc:Work>
    </rdf:RDF>
  </metadata>
  <g inkscape:groupmode="layer" id="layer2" transform="translate(-217.985, -379.438)">
    <path style="fill:none;fill-rule:evenodd;stroke:#dadada;stroke-width:2;stroke-linecap:butt;stroke-linejoin:miter;stroke-opacity:1;stroke-miterlimit:4;stroke-dasharray:none;filter:url(#filter3831)" d="M 228.84547,46.452923 C 228.84547,46.452923 232.05959,50.202731 234.20234,50.524144 C 236.34508,50.845556 239.66634,49.45277 239.66634,49.45277" id="path3757" transform="translate(217.985, 379.438)"/>
    <path style="fill:none;fill-rule:evenodd;stroke:#252525;stroke-width:3;stroke-linecap:butt;stroke-linejoin:miter;stroke-miterlimit:4;stroke-dasharray:none;stroke-opacity:1;filter:url(#filter3633)" d="M 444.7947,421.49823 C 444.7947,421.49823 445.6518,412.39155 452.08005,412.17728 C 458.50829,411.963 461.50814,416.14136 461.50814,416.14136 C 461.50814,416.14136 463.1152,419.99831 462.68665,421.49823 C 462.2581,422.99815 460.11535,427.49792 459.15112,428.03361 C 458.18688,428.5693 457.43692,428.89071 457.43692,428.89071" id="path3579" sodipodi:nodetypes="cscssc"/>
    <path style="fill:#3b3b3b;fill-rule:evenodd;stroke:#2b2b2b;stroke-width:1px;stroke-linecap:butt;stroke-linejoin:miter;stroke-opacity:1;fill-opacity:1" d="M 32.3125 0.5 C 30.49432 0.5 26.25852 1.7036001 23.53125 3.21875 C 20.80398 4.7339 15.65625 8.6875001 15.65625 8.6875 C 15.65625 8.6875 3.5246199 21.70076 2.3125 24.125 C 1.10038 26.54925 0.5 31.71875 0.5 31.71875 C 0.5 31.71875 26.86931 24.14394 28.6875 24.75 C 30.50568 25.35607 31.71875 29.59375 31.71875 29.59375 L 44.125 77.78125 C 44.125 77.78125 49.903412 76.574808 50.8125 75.96875 C 51.72159 75.36269 55.96875 69.593748 55.96875 69.59375 C 55.96875 69.59375 67.479168 61.72443 70.8125 59.90625 C 74.14583 58.08807 82.310612 54.752842 86.25 53.84375 C 90.1894 52.93466 93.531254 52.9375 93.53125 52.9375 L 239.90625 56.5625 C 239.90625 56.5625 251.69981 52.3125 251.09375 42.3125 C 250.17698 27.18571 237.78124 25.96875 237.78125 25.96875 L 118.6875 27.15625 C 119.29356 26.85322 96.267992 27.46875 93.84375 27.46875 C 91.41951 27.46875 73.845636 21.69981 69.90625 21.09375 C 65.96685 20.48769 46.243372 7.4592802 45.03125 7.15625 C 43.81913 6.85322 34.13068 0.5 32.3125 0.5 z M 236.09375 32 C 241.53011 32.000002 245.96875 36.438636 245.96875 41.875 C 245.96875 47.311362 241.53011 51.71875 236.09375 51.71875 C 230.65738 51.71875 226.25 47.311364 226.25 41.875 C 226.24999 36.438635 230.65739 32 236.09375 32 z " transform="translate(217.985, 379.438)" id="path2402"/>
    <path style="fill:none;fill-rule:evenodd;stroke:#000000;stroke-width:1.39999999999999990;stroke-linecap:butt;stroke-linejoin:miter;stroke-opacity:1;stroke-miterlimit:4;stroke-dasharray:none;filter:url(#filter3518)" d="M 288.18182,439.63491 L 287.57576,432.36218" id="path2408"/>
    <path style="fill:none;fill-rule:evenodd;stroke:#000000;stroke-width:1.39999999999999990;stroke-linecap:butt;stroke-linejoin:miter;stroke-opacity:1;stroke-miterlimit:4;stroke-dasharray:none;filter:url(#filter3514)" d="M 276.66667,445.99855 L 275.15152,435.99855" id="path2410"/>
    <path style="fill:none;fill-rule:evenodd;stroke:#000000;stroke-width:1.39999999999999990;stroke-linecap:butt;stroke-linejoin:miter;stroke-opacity:1;stroke-miterlimit:4;stroke-dasharray:none;filter:url(#filter3522)" d="M 280.60606,407.81673 C 280.60606,406.60461 277.87879,396.90764 277.87879,396.90764" id="path2412"/>
    <path style="fill:none;fill-rule:evenodd;stroke:#000000;stroke-width:1.39999999999999990;stroke-linecap:butt;stroke-linejoin:miter;stroke-opacity:1;stroke-miterlimit:4;stroke-dasharray:none;filter:url(#filter3510)" d="M 268.78788,411.45309 L 266.06061,400.24097" id="path2414"/>
    <path style="fill:none;fill-rule:evenodd;stroke:#979797;stroke-width:1px;stroke-linecap:butt;stroke-linejoin:miter;stroke-opacity:1;filter:url(#filter3554)" d="M 288.48485,431.15006 L 301.21212,429.93794 L 334.54545,429.93794 L 435.75758,433.27127 C 435.75758,433.27127 440,433.27127 440.30303,431.45309 C 440.60606,429.63491 440.90909,410.24097 440.90909,410.24097" id="path2416"/>
    <path style="fill:none;fill-rule:evenodd;stroke:#979797;stroke-width:1px;stroke-linecap:butt;stroke-linejoin:miter;stroke-opacity:1;filter:url(#filter3753)" d="M 317.27273,409.93794 L 394.54545,408.72582" id="path2418" sodipodi:nodetypes="cc"/>
    <path style="fill:none;fill-rule:evenodd;stroke:#000000;stroke-width:1.39999999999999990;stroke-linecap:butt;stroke-linejoin:miter;stroke-opacity:1;stroke-miterlimit:4;stroke-dasharray:none;filter:url(#filter3506)" d="M 271.21212,433.87733 C 271.21212,433.87733 279.09091,434.48339 282.42424,433.27127 C 285.75758,432.05915 293.93939,428.72582 293.93939,428.72582 L 346.06061,427.5137 L 434.54545,431.15006 C 434.54545,431.15006 436.36364,432.05915 437.27273,430.544 C 438.18182,429.02885 438.48485,413.87733 438.48485,413.87733 C 438.48485,413.87733 438.78788,411.45309 436.66667,411.15006 C 434.54545,410.84703 376.66667,412.96824 376.66667,412.96824 C 376.66667,412.96824 326.9697,412.96824 325.45455,412.96824 C 323.93939,412.96824 285.45455,409.93794 285.45455,409.93794 L 280,409.93794 L 267.87879,415.99855 L 271.21212,433.87733 z" id="path2420" sodipodi:nodetypes="cscccscscscccc"/>
    <path style="fill:url(#linearGradient3216);fill-rule:evenodd;stroke:#000000;stroke-width:1px;stroke-linecap:butt;stroke-linejoin:miter;stroke-opacity:1;fill-opacity:1;filter:url(#filter3362)" d="M 287.6639,431.28673 L 282.09275,410.18066 L 280.37855,410.18066 L 271.70042,414.25188 L 276.30733,433.85802 L 281.12851,434.0723 L 287.6639,431.28673 z" id="path2422"/>
    <path style="fill:none;fill-rule:evenodd;stroke:#161616;stroke-width:1px;stroke-linecap:butt;stroke-linejoin:miter;stroke-opacity:1;filter:url(#filter3298)" d="M 271.37901,418.21596 L 285.52115,416.82318" id="path2424"/>
    <path style="fill:none;fill-rule:evenodd;stroke:#161616;stroke-width:1px;stroke-linecap:butt;stroke-linejoin:miter;stroke-opacity:1;filter:url(#filter3294)" d="M 272.98607,424.10852 L 286.59252,422.50146" id="path2426"/>
    <path style="fill:none;fill-rule:evenodd;stroke:#161616;stroke-width:1px;stroke-linecap:butt;stroke-linejoin:miter;stroke-opacity:1;filter:url(#filter3290)" d="M 274.37886,429.67967 L 287.77103,428.0726" id="path2428"/>
    <path style="fill:none;fill-rule:evenodd;stroke:#818181;stroke-width:2.29999999999999980;stroke-linecap:butt;stroke-linejoin:miter;stroke-opacity:1;stroke-miterlimit:4;stroke-dasharray:none;filter:url(#filter3338)" d="M 270.62905,416.50177 L 284.98546,415.10898" id="path2430"/>
    <path style="fill:none;fill-rule:evenodd;stroke:#818181;stroke-width:2.29999999999999980;stroke-linecap:butt;stroke-linejoin:miter;stroke-opacity:1;stroke-miterlimit:4;stroke-dasharray:none;filter:url(#filter3342)" d="M 271.70042,422.39432 L 287.12821,420.57299" id="path2432"/>
    <path style="fill:none;fill-rule:evenodd;stroke:#818181;stroke-width:2.29999999999999980;stroke-linecap:butt;stroke-linejoin:miter;stroke-opacity:1;stroke-miterlimit:4;stroke-dasharray:none;filter:url(#filter3346)" d="M 273.20035,427.64405 L 288.73527,426.14413" id="path2434"/>
    <path style="fill:#b8b8b8;fill-rule:evenodd;stroke:#212121;stroke-width:0.3;stroke-linecap:butt;stroke-linejoin:miter;stroke-opacity:1;fill-opacity:1;stroke-miterlimit:4;stroke-dasharray:none" d="M 260.15152,449.93794 C 260.15152,449.93794 244.69697,447.21067 238.93939,444.48339 C 235.64055,442.92078 230.18685,439.92033 227.03635,437.38384 C 224.68818,435.49331 224.09091,433.72582 224.09091,433.72582 L 253.78788,425.39249 L 260.15152,449.93794 z" id="path2436" sodipodi:nodetypes="cssccc"/>
    <path style="fill:#363636;fill-rule:evenodd;stroke:none;stroke-width:1px;stroke-linecap:butt;stroke-linejoin:miter;stroke-opacity:1;fill-opacity:1" d="M 228.63636,438.5743 L 257.42424,440.24097 L 260.45455,449.93794 C 260.45455,449.93794 244.09091,446.90764 241.06061,445.69552 C 238.0303,444.48339 228.18182,438.87733 228.63636,438.5743 z" id="path2438"/>
    <path style="fill:#b8b8b8;fill-rule:evenodd;stroke:#212121;stroke-width:0.5;stroke-linecap:butt;stroke-linejoin:miter;stroke-opacity:1;fill-opacity:1;stroke-miterlimit:4;stroke-dasharray:none" d="M 2.3570226,24.704032 L 28.284272,8.2048742 L 45.854803,20.204262 L 49.2832,33.489298 L 47.569002,36.060596 L 51.854497,56.202425 L 55.925718,58.345173 L 57.425642,68.630363 C 57.425642,68.630363 55.068619,70.987385 54.21152,72.058759 C 53.354421,73.130133 51.640223,76.12998 51.640223,76.12998 L 43.92633,77.844178 L 31.712668,28.989528 C 31.712668,28.989528 30.855569,24.704032 28.498546,24.704032 C 26.141523,24.704032 0.64282435,31.989375 0.64282435,31.989375 C 0.49510473,29.29008 0.36153895,26.622172 2.3570226,24.704032 z" id="path3574" transform="translate(217.985, 379.438)" sodipodi:nodetypes="ccccccccscccscc"/>
    <path style="fill:none;fill-rule:evenodd;stroke:#212121;stroke-width:1.60000000000000010;stroke-linecap:butt;stroke-linejoin:miter;stroke-opacity:1;stroke-miterlimit:4;stroke-dasharray:none;filter:url(#filter3570)" d="M 220.30303,403.27127 C 220.30303,403.27127 243.63636,387.81673 245.75758,387.81673 C 247.87879,387.81673 264.24242,398.42279 264.24242,398.42279 L 268.18182,412.36218 L 266.36364,415.39249 L 270.60606,435.08946 L 274.54545,437.21067 L 276.36364,447.21067 L 272.12121,451.45309 L 269.69697,454.78643 L 262.42424,456.60461" id="path2406"/>
  </g>
</svg>